{
    "componentChunkName": "component---node-modules-gatsby-theme-buzzing-src-gatsby-theme-timeline-templates-posts-query-js",
    "path": "/tags/reddit/page/2",
    "result": {"data":{"site":{"siteMetadata":{"title":"数据之美","author":"Buzzing.cc","description":"用数字读懂世界，关于数据可视化，统计相关的一切信息","keywords":["buzzing","数据之美","Index","data","突发新闻","指数","统计"],"siteUrl":"https://data.buzzing.cc","telegram":"@buzzingcc","iconUrl":"https://data.buzzing.cc/avatar.jpg","defaultSocialImageUrl":null,"social":[{"name":"Data Is Beautiful","url":"https://www.reddit.com/r/dataisbeautiful","external":true},{"name":"Buzzing","url":"https://www.buzzing.cc/","external":true}],"menuLinks":[],"disqus":null,"utterances":null,"localize":[{"title":"Buzzing on Data","description":"See what's buzzing on data in your native language","keywords":["buzzing","data","charts"],"locale":"en","social":{"name":null,"url":null,"external":null},"menuLinks":[{"name":"Weekly Selection","url":"/issues","external":null}]},{"title":"數據之美","description":"用數字讀懂世界，關於數據可視化，統計相關的一切信息","keywords":["buzzing","數據之美","Index","data","突發新聞","指數","統計"],"locale":"zh-Hant","social":null,"menuLinks":[]},{"title":"データの美しさ","description":"数字を使用して世界、データの視覚化と統計に関するすべての情報を理解する","keywords":["buzzing","データの美しさ"],"locale":"ja","social":null,"menuLinks":[]}]}},"tagsGroup":{"group":[{"fieldValue":"dataisbeautiful","totalCount":516},{"fieldValue":"reddit","totalCount":516},{"fieldValue":"tweet","totalCount":62}]},"allBlogPost":{"nodes":[{"id":"RedditPost-q0sgmc","excerpt":"","slug":"/reddit/r/dataisbeautiful/comments/q0sgmc/oc_the_longest_living_animals_on_earth/","title":"[OC] The Longest Living Animals On Earth","date":"October 03, 2021","dateISO":"2021-10-03T23:48:27.000Z","datetime":"2021-10-03 23:48","tags":["dataisbeautiful","reddit"],"image":null,"imageAlt":"Reddit Image","__typename":"SocialMediaPost","provider":"Reddit","thirdPartyId":"q0sgmc","url":"https://www.reddit.com/r/dataisbeautiful/comments/q0sgmc/oc_the_longest_living_animals_on_earth/","originalUrl":"https://www.reddit.com/r/dataisbeautiful/comments/q0sgmc/oc_the_longest_living_animals_on_earth/","imageRemote":"https://i.redd.it/yjm40ehcbbr71.png?width=1080&crop=smart&auto=webp&s=3d6d975424c8eaf1d197160b9e05ae19eef2a253","video":null,"channel":"dataisbeautiful","channelUrl":"https://www.reddit.com/r/dataisbeautiful","author":"Dremarious","authorUrl":"https://www.reddit.com/user/Dremarious","authorImageRemote":null,"authorImage":null,"authorSlug":"Dremarious","score":89,"views":null,"sharedCount":null,"likeCount":null,"sharedContent":null,"parent":{"localize":[{"title":"[OC] 地球上で最も長く生きている動物たち","the_new_excerpt":null,"locale":"ja"},{"title":"[OC] 地球上寿命最长的动物","the_new_excerpt":null,"locale":"zh"},{"title":"[OC] 地球上壽命最長的動物","the_new_excerpt":null,"locale":"zh-Hant"}]}},{"id":"RedditPost-q0glvi","excerpt":"","slug":"/reddit/r/dataisbeautiful/comments/q0glvi/oc_countries_that_produce_the_most_energy_from/","title":"[OC] Countries that produce the most energy from wind","date":"October 03, 2021","dateISO":"2021-10-03T13:27:11.000Z","datetime":"2021-10-03 13:27","tags":["dataisbeautiful","reddit"],"image":null,"imageAlt":null,"__typename":"SocialMediaPost","provider":"Reddit","thirdPartyId":"q0glvi","url":"https://www.reddit.com/r/dataisbeautiful/comments/q0glvi/oc_countries_that_produce_the_most_energy_from/","originalUrl":"https://www.reddit.com/r/dataisbeautiful/comments/q0glvi/oc_countries_that_produce_the_most_energy_from/","imageRemote":null,"video":{"url":"https://www.redditmedia.com/r/dataisbeautiful/comments/q0glvi/oc_countries_that_produce_the_most_energy_from/?ref_source=embed&amp;ref=share&amp;embed=true","embed":true,"width":1080,"height":1080},"channel":"dataisbeautiful","channelUrl":"https://www.reddit.com/r/dataisbeautiful","author":"PieChartPirate","authorUrl":"https://www.reddit.com/user/PieChartPirate","authorImageRemote":null,"authorImage":null,"authorSlug":"PieChartPirate","score":241,"views":null,"sharedCount":null,"likeCount":null,"sharedContent":null,"parent":{"localize":[{"title":"[OC] 風力によるエネルギー生産量が多い国","the_new_excerpt":null,"locale":"ja"},{"title":"[OC] 利用风能生产最多的国家","the_new_excerpt":null,"locale":"zh"},{"title":"[OC] 利用風能生產最多的國家","the_new_excerpt":null,"locale":"zh-Hant"}]}},{"id":"RedditPost-pzylk4","excerpt":"","slug":"/reddit/r/dataisbeautiful/comments/pzylk4/oc_when_do_the_uk_public_think_that_the_covid19/","title":"[OC] When do the UK public think that the COVID-19 pandemic will be over?","date":"October 03, 2021","dateISO":"2021-10-03T09:02:54.000Z","datetime":"2021-10-03 09:02","tags":["dataisbeautiful","reddit"],"image":null,"imageAlt":"Reddit Image","__typename":"SocialMediaPost","provider":"Reddit","thirdPartyId":"pzylk4","url":"https://www.reddit.com/r/dataisbeautiful/comments/pzylk4/oc_when_do_the_uk_public_think_that_the_covid19/","originalUrl":"https://www.reddit.com/r/dataisbeautiful/comments/pzylk4/oc_when_do_the_uk_public_think_that_the_covid19/","imageRemote":"https://i.redd.it/5ebk6qqre2r71.png?width=1080&crop=smart&auto=webp&s=03483ada22913304d4c23ec1dd566da6d557bb73","video":null,"channel":"dataisbeautiful","channelUrl":"https://www.reddit.com/r/dataisbeautiful","author":"ChloeLikesCharts","authorUrl":"https://www.reddit.com/user/ChloeLikesCharts","authorImageRemote":null,"authorImage":null,"authorSlug":"ChloeLikesCharts","score":81,"views":null,"sharedCount":null,"likeCount":null,"sharedContent":null,"parent":{"localize":[{"title":"[OC】イギリス国民はCOVID-19のパンデミックがいつ終わると思うか？","the_new_excerpt":null,"locale":"ja"},{"title":"[OC]英国公众认为COVID-19大流行病何时会结束？","the_new_excerpt":null,"locale":"zh"},{"title":"[OC]英國公衆認爲COVID-19大流行病何時會結束？","the_new_excerpt":null,"locale":"zh-Hant"}]}},{"id":"RedditPost-q01maz","excerpt":"","slug":"/reddit/r/dataisbeautiful/comments/q01maz/oc_how_144_kenyan_women_spent_their_1125_in/","title":"[OC] How 144 Kenyan women spent their $1,125 in COVID-19 relief cash | GiveDirectly","date":"October 03, 2021","dateISO":"2021-10-03T05:27:13.000Z","datetime":"2021-10-03 05:27","tags":["dataisbeautiful","reddit"],"image":null,"imageAlt":null,"__typename":"SocialMediaPost","provider":"Reddit","thirdPartyId":"q01maz","url":"https://www.reddit.com/r/dataisbeautiful/comments/q01maz/oc_how_144_kenyan_women_spent_their_1125_in/","originalUrl":"https://www.reddit.com/r/dataisbeautiful/comments/q01maz/oc_how_144_kenyan_women_spent_their_1125_in/","imageRemote":null,"video":{"url":"https://preview.redd.it/sdep9xgb83r71.gif?format=mp4&s=ad830c8cd6a05ebb0df1bc5f0af05c3c7f322fff","embed":null,"width":800,"height":534},"channel":"dataisbeautiful","channelUrl":"https://www.reddit.com/r/dataisbeautiful","author":"Give-Directly","authorUrl":"https://www.reddit.com/user/Give-Directly","authorImageRemote":null,"authorImage":null,"authorSlug":"Give-Directly","score":82,"views":null,"sharedCount":null,"likeCount":null,"sharedContent":null,"parent":{"localize":[{"title":"[OC] ケニアの女性144人がCOVID-19の支援金1,125ドルをどう使ったか｜GiveDirectly","the_new_excerpt":null,"locale":"ja"},{"title":"[OC]144名肯尼亚妇女如何使用1,125美元的COVID-19救济现金 | GiveDirectly","the_new_excerpt":null,"locale":"zh"},{"title":"[OC]144名肯尼亞婦女如何使用1,125美元的COVID-19救濟現金 | GiveDirectly","the_new_excerpt":null,"locale":"zh-Hant"}]}},{"id":"RedditPost-q07rol","excerpt":"","slug":"/reddit/r/dataisbeautiful/comments/q07rol/homicides_in_california_by_day_of_week_19872020_oc/","title":"Homicides in California by Day of Week, 1987-2020 [OC]","date":"October 03, 2021","dateISO":"2021-10-03T04:30:02.000Z","datetime":"2021-10-03 04:30","tags":["dataisbeautiful","reddit"],"image":null,"imageAlt":"Reddit Image","__typename":"SocialMediaPost","provider":"Reddit","thirdPartyId":"q07rol","url":"https://www.reddit.com/r/dataisbeautiful/comments/q07rol/homicides_in_california_by_day_of_week_19872020_oc/","originalUrl":"https://www.reddit.com/r/dataisbeautiful/comments/q07rol/homicides_in_california_by_day_of_week_19872020_oc/","imageRemote":"https://i.redd.it/sul2wdnyz4r71.png?width=1080&crop=smart&auto=webp&s=f1ca6d7f7301aeebf46e9ba82713158bb19ef895","video":null,"channel":"dataisbeautiful","channelUrl":"https://www.reddit.com/r/dataisbeautiful","author":"academiaadvice","authorUrl":"https://www.reddit.com/user/academiaadvice","authorImageRemote":null,"authorImage":null,"authorSlug":"academiaadvice","score":118,"views":null,"sharedCount":null,"likeCount":null,"sharedContent":null,"parent":{"localize":[{"title":"カリフォルニア州の曜日別殺人事件数、1987年～2020年 [OC)","the_new_excerpt":null,"locale":"ja"},{"title":"1987-2020年加利福尼亚州按星期划分的凶杀案 [OC]","the_new_excerpt":null,"locale":"zh"},{"title":"1987-2020年加利福尼亞州按星期劃分的兇殺案 [OC]","the_new_excerpt":null,"locale":"zh-Hant"}]}},{"id":"RedditPost-q05h36","excerpt":"","slug":"/reddit/r/dataisbeautiful/comments/q05h36/latin_america_based_around_what_percentage_of_its/","title":"Latin America based around what percentage of its population would defend their own country or join it in attacking another as the aggressor. [OC]","date":"October 03, 2021","dateISO":"2021-10-03T02:12:17.000Z","datetime":"2021-10-03 02:12","tags":["dataisbeautiful","reddit"],"image":null,"imageAlt":null,"__typename":"SocialMediaPost","provider":"Reddit","thirdPartyId":"q05h36","url":"https://www.reddit.com/r/dataisbeautiful/comments/q05h36/latin_america_based_around_what_percentage_of_its/","originalUrl":"https://www.reddit.com/r/dataisbeautiful/comments/q05h36/latin_america_based_around_what_percentage_of_its/","imageRemote":null,"video":null,"channel":"dataisbeautiful","channelUrl":"https://www.reddit.com/r/dataisbeautiful","author":"Duckhorse2002","authorUrl":"https://www.reddit.com/user/Duckhorse2002","authorImageRemote":null,"authorImage":null,"authorSlug":"Duckhorse2002","score":87,"views":null,"sharedCount":null,"likeCount":null,"sharedContent":null,"parent":{"localize":[{"title":"ラテンアメリカでは、人口の何％が自国を守るか、あるいは加害者として他国を攻撃することに加わるかを基準にしています。[OC].","the_new_excerpt":null,"locale":"ja"},{"title":"拉美地区围绕着有多少百分比的人口会保卫自己的国家，或与它一起作为侵略者攻击另一个国家。[OC]","the_new_excerpt":null,"locale":"zh"},{"title":"拉美地區圍繞着有多少百分比的人口會保衛自己的國家，或與它一起作爲侵略者攻擊另一個國家。[OC]","the_new_excerpt":null,"locale":"zh-Hant"}]}},{"id":"RedditPost-pzy78u","excerpt":"","slug":"/reddit/r/dataisbeautiful/comments/pzy78u/oc_usa_and_europe_murder_rates_20202019/","title":"[OC] USA and Europe murder rates 2020/2019","date":"October 02, 2021","dateISO":"2021-10-02T19:22:56.000Z","datetime":"2021-10-02 19:22","tags":["dataisbeautiful","reddit"],"image":null,"imageAlt":"Reddit Image","__typename":"SocialMediaPost","provider":"Reddit","thirdPartyId":"pzy78u","url":"https://www.reddit.com/r/dataisbeautiful/comments/pzy78u/oc_usa_and_europe_murder_rates_20202019/","originalUrl":"https://www.reddit.com/r/dataisbeautiful/comments/pzy78u/oc_usa_and_europe_murder_rates_20202019/","imageRemote":"https://i.redd.it/ncqw5g30b2r71.png?width=1080&crop=smart&auto=webp&s=c9a440ece7ec567d5c1a37d1b9f115ad628375a2","video":null,"channel":"dataisbeautiful","channelUrl":"https://www.reddit.com/r/dataisbeautiful","author":"SPTudoMaisGenro","authorUrl":"https://www.reddit.com/user/SPTudoMaisGenro","authorImageRemote":null,"authorImage":null,"authorSlug":"SPTudoMaisGenro","score":83,"views":null,"sharedCount":null,"likeCount":null,"sharedContent":null,"parent":{"localize":[{"title":"[OC】アメリカとヨーロッパの殺人件数 2020/2019年","the_new_excerpt":null,"locale":"ja"},{"title":"[OC] 美国和欧洲的谋杀率2020/2019年","the_new_excerpt":null,"locale":"zh"},{"title":"[OC] 美國和歐洲的謀殺率2020/2019年","the_new_excerpt":null,"locale":"zh-Hant"}]}},{"id":"RedditPost-pzsj1q","excerpt":"","slug":"/reddit/r/dataisbeautiful/comments/pzsj1q/earths_surface_area_by_typeusage_oc/","title":"Earth's surface area by type/usage [OC]","date":"October 02, 2021","dateISO":"2021-10-02T11:18:38.000Z","datetime":"2021-10-02 11:18","tags":["dataisbeautiful","reddit"],"image":null,"imageAlt":"Reddit Image","__typename":"SocialMediaPost","provider":"Reddit","thirdPartyId":"pzsj1q","url":"https://www.reddit.com/r/dataisbeautiful/comments/pzsj1q/earths_surface_area_by_typeusage_oc/","originalUrl":"https://www.reddit.com/r/dataisbeautiful/comments/pzsj1q/earths_surface_area_by_typeusage_oc/","imageRemote":"https://i.redd.it/vt40iarki0r71.png?width=1080&crop=smart&auto=webp&s=69758d487d5595fbb7232ce2a2a1a77e00295ae1","video":null,"channel":"dataisbeautiful","channelUrl":"https://www.reddit.com/r/dataisbeautiful","author":"rspeigal","authorUrl":"https://www.reddit.com/user/rspeigal","authorImageRemote":null,"authorImage":null,"authorSlug":"rspeigal","score":426,"views":null,"sharedCount":null,"likeCount":null,"sharedContent":null,"parent":{"localize":[{"title":"タイプ/用途別の地球の表面積 [OC)","the_new_excerpt":null,"locale":"ja"},{"title":"按类型/用途划分的地球表面积 [OC]","the_new_excerpt":null,"locale":"zh"},{"title":"按類型/用途劃分的地球表面積 [OC]","the_new_excerpt":null,"locale":"zh-Hant"}]}},{"id":"RedditPost-pzh6uv","excerpt":"","slug":"/reddit/r/dataisbeautiful/comments/pzh6uv/the_worlds_fastest_slowest_internet_speeds/","title":"The World's Fastest & Slowest Internet Speeds","date":"October 02, 2021","dateISO":"2021-10-02T08:17:33.000Z","datetime":"2021-10-02 08:17","tags":["dataisbeautiful","reddit"],"image":null,"imageAlt":null,"__typename":"SocialMediaPost","provider":"Reddit","thirdPartyId":"pzh6uv","url":"https://www.reddit.com/r/dataisbeautiful/comments/pzh6uv/the_worlds_fastest_slowest_internet_speeds/","originalUrl":"https://www.reddit.com/r/dataisbeautiful/comments/pzh6uv/the_worlds_fastest_slowest_internet_speeds/","imageRemote":null,"video":null,"channel":"dataisbeautiful","channelUrl":"https://www.reddit.com/r/dataisbeautiful","author":"NumericallyCorrect","authorUrl":"https://www.reddit.com/user/NumericallyCorrect","authorImageRemote":null,"authorImage":null,"authorSlug":"NumericallyCorrect","score":83,"views":null,"sharedCount":null,"likeCount":null,"sharedContent":null,"parent":{"localize":[{"title":"世界で最も速い＆最も遅いインターネット速度","the_new_excerpt":null,"locale":"ja"},{"title":"世界上最快和最慢的网速","the_new_excerpt":null,"locale":"zh"},{"title":"世界上最快和最慢的網速","the_new_excerpt":null,"locale":"zh-Hant"}]}},{"id":"RedditPost-pz7soo","excerpt":"","slug":"/reddit/r/dataisbeautiful/comments/pz7soo/oc_global_offshore_wind_turbines_20152019/","title":"[OC] Global Offshore Wind Turbines 2015-2019","date":"October 01, 2021","dateISO":"2021-10-01T20:20:05.000Z","datetime":"2021-10-01 20:20","tags":["dataisbeautiful","reddit"],"image":null,"imageAlt":null,"__typename":"SocialMediaPost","provider":"Reddit","thirdPartyId":"pz7soo","url":"https://www.reddit.com/r/dataisbeautiful/comments/pz7soo/oc_global_offshore_wind_turbines_20152019/","originalUrl":"https://www.reddit.com/r/dataisbeautiful/comments/pz7soo/oc_global_offshore_wind_turbines_20152019/","imageRemote":null,"video":{"url":"https://www.redditmedia.com/r/dataisbeautiful/comments/pz7soo/oc_global_offshore_wind_turbines_20152019/?ref_source=embed&amp;ref=share&amp;embed=true","embed":true,"width":1920,"height":1015},"channel":"dataisbeautiful","channelUrl":"https://www.reddit.com/r/dataisbeautiful","author":"mbeccaria","authorUrl":"https://www.reddit.com/user/mbeccaria","authorImageRemote":null,"authorImage":null,"authorSlug":"mbeccaria","score":85,"views":null,"sharedCount":null,"likeCount":null,"sharedContent":null,"parent":{"localize":[{"title":"[OC] 世界の洋上風力発電機 2015-2019","the_new_excerpt":null,"locale":"ja"},{"title":"[OC] 2015-2019年全球海上风力发电机组","the_new_excerpt":null,"locale":"zh"},{"title":"[OC] 2015-2019年全球海上風力發電機組","the_new_excerpt":null,"locale":"zh-Hant"}]}},{"id":"RedditPost-pypa7y","excerpt":"","slug":"/reddit/r/dataisbeautiful/comments/pypa7y/oc_remix_covid_and_2019_mortality_rates_no/","title":"[OC] (Remix) COVID and 2019 Mortality Rates: No percentages","date":"October 01, 2021","dateISO":"2021-10-01T17:30:23.000Z","datetime":"2021-10-01 17:30","tags":["dataisbeautiful","reddit"],"image":null,"imageAlt":"Reddit Image","__typename":"SocialMediaPost","provider":"Reddit","thirdPartyId":"pypa7y","url":"https://www.reddit.com/r/dataisbeautiful/comments/pypa7y/oc_remix_covid_and_2019_mortality_rates_no/","originalUrl":"https://www.reddit.com/r/dataisbeautiful/comments/pypa7y/oc_remix_covid_and_2019_mortality_rates_no/","imageRemote":"https://i.redd.it/12mjxlanjoq71.png?width=1080&crop=smart&auto=webp&s=e7d4ddf7479a9655c812f5b6185c178dca65b7d7","video":null,"channel":"dataisbeautiful","channelUrl":"https://www.reddit.com/r/dataisbeautiful","author":"ke7kto","authorUrl":"https://www.reddit.com/user/ke7kto","authorImageRemote":null,"authorImage":null,"authorSlug":"ke7kto","score":83,"views":null,"sharedCount":null,"likeCount":null,"sharedContent":null,"parent":{"localize":[{"title":"[OC】（リミックス）COVIDと2019年の死亡率。パーセンテージなし","the_new_excerpt":null,"locale":"ja"},{"title":"[OC] （Remix）COVID和2019年的死亡率。没有百分比","the_new_excerpt":null,"locale":"zh"},{"title":"[OC] （Remix）COVID和2019年的死亡率。沒有百分比","the_new_excerpt":null,"locale":"zh-Hant"}]}},{"id":"RedditPost-pz8ikk","excerpt":"","slug":"/reddit/r/dataisbeautiful/comments/pz8ikk/oc_animation_tracking_the_size_of_this_years/","title":"[OC] Animation tracking the size of this year's ozone hole which is one of the largest on record","date":"October 01, 2021","dateISO":"2021-10-01T14:57:11.000Z","datetime":"2021-10-01 14:57","tags":["dataisbeautiful","reddit"],"image":null,"imageAlt":null,"__typename":"SocialMediaPost","provider":"Reddit","thirdPartyId":"pz8ikk","url":"https://www.reddit.com/r/dataisbeautiful/comments/pz8ikk/oc_animation_tracking_the_size_of_this_years/","originalUrl":"https://www.reddit.com/r/dataisbeautiful/comments/pz8ikk/oc_animation_tracking_the_size_of_this_years/","imageRemote":null,"video":{"url":"https://www.redditmedia.com/r/dataisbeautiful/comments/pz8ikk/oc_animation_tracking_the_size_of_this_years/?ref_source=embed&amp;ref=share&amp;embed=true","embed":true,"width":1920,"height":1080},"channel":"dataisbeautiful","channelUrl":"https://www.reddit.com/r/dataisbeautiful","author":"sdbernard","authorUrl":"https://www.reddit.com/user/sdbernard","authorImageRemote":null,"authorImage":null,"authorSlug":"sdbernard","score":82,"views":null,"sharedCount":null,"likeCount":null,"sharedContent":null,"parent":{"localize":[{"title":"[OC] 記録的な大きさとなった今年のオゾンホールの大きさをアニメーションで追う","the_new_excerpt":null,"locale":"ja"},{"title":"[OC] 追踪今年臭氧洞大小的动画，这是有史以来最大的臭氧洞之一","the_new_excerpt":null,"locale":"zh"},{"title":"[OC] 追蹤今年臭氧洞大小的動畫，這是有史以來最大的臭氧洞之一","the_new_excerpt":null,"locale":"zh-Hant"}]}},{"id":"RedditPost-pz70lr","excerpt":"","slug":"/reddit/r/dataisbeautiful/comments/pz70lr/oc_legalization_of_samesex_marriage_in_europe_as/","title":"[OC] Legalization of same-sex marriage in Europe as of 1 October 2021","date":"October 01, 2021","dateISO":"2021-10-01T13:30:29.000Z","datetime":"2021-10-01 13:30","tags":["dataisbeautiful","reddit"],"image":null,"imageAlt":"Reddit Image","__typename":"SocialMediaPost","provider":"Reddit","thirdPartyId":"pz70lr","url":"https://www.reddit.com/r/dataisbeautiful/comments/pz70lr/oc_legalization_of_samesex_marriage_in_europe_as/","originalUrl":"https://www.reddit.com/r/dataisbeautiful/comments/pz70lr/oc_legalization_of_samesex_marriage_in_europe_as/","imageRemote":"https://i.redd.it/d2lo2yyn1uq71.png?width=1080&crop=smart&auto=webp&s=72c13c164742b8a6a4056da92ccc69d96afc7303","video":null,"channel":"dataisbeautiful","channelUrl":"https://www.reddit.com/r/dataisbeautiful","author":"Tricky-Astronaut","authorUrl":"https://www.reddit.com/user/Tricky-Astronaut","authorImageRemote":null,"authorImage":null,"authorSlug":"Tricky-Astronaut","score":106,"views":null,"sharedCount":null,"likeCount":null,"sharedContent":null,"parent":{"localize":[{"title":"[OC】2021年10月1日に欧州で同性婚を合法化","the_new_excerpt":null,"locale":"ja"},{"title":"[OC]从2021年10月1日起，欧洲同性婚姻合法化","the_new_excerpt":null,"locale":"zh"},{"title":"[OC]從2021年10月1日起，歐洲同性婚姻合法化","the_new_excerpt":null,"locale":"zh-Hant"}]}},{"id":"RedditPost-pymu9w","excerpt":"","slug":"/reddit/r/dataisbeautiful/comments/pymu9w/us_county_presidential_vote_margin_changes_from/","title":"US County Presidential Vote Margin Changes from 2016 to 2020 [OC]","date":"October 01, 2021","dateISO":"2021-10-01T13:04:30.000Z","datetime":"2021-10-01 13:04","tags":["dataisbeautiful","reddit"],"image":null,"imageAlt":"Reddit Image","__typename":"SocialMediaPost","provider":"Reddit","thirdPartyId":"pymu9w","url":"https://www.reddit.com/r/dataisbeautiful/comments/pymu9w/us_county_presidential_vote_margin_changes_from/","originalUrl":"https://www.reddit.com/r/dataisbeautiful/comments/pymu9w/us_county_presidential_vote_margin_changes_from/","imageRemote":"https://i.redd.it/wb3iifo4ynq71.png?width=1080&crop=smart&auto=webp&s=10de3a905ba646a4066ed2e61a0a4fe1cc1ecece","video":null,"channel":"dataisbeautiful","channelUrl":"https://www.reddit.com/r/dataisbeautiful","author":"BoMcCready","authorUrl":"https://www.reddit.com/user/BoMcCready","authorImageRemote":null,"authorImage":null,"authorSlug":"BoMcCready","score":83,"views":null,"sharedCount":null,"likeCount":null,"sharedContent":null,"parent":{"localize":[{"title":"2016年から2020年までの米国郡の大統領選投票率の変化【OC","the_new_excerpt":null,"locale":"ja"},{"title":"2016年至2020年美国各县总统投票率变化 [OC]","the_new_excerpt":null,"locale":"zh"},{"title":"2016年至2020年美國各縣總統投票率變化 [OC]","the_new_excerpt":null,"locale":"zh-Hant"}]}},{"id":"RedditPost-pz0sce","excerpt":"","slug":"/reddit/r/dataisbeautiful/comments/pz0sce/oc_ndvi_vegetation_index_over_a_typical_year_in/","title":"[OC] NDVI (Vegetation Index) over a typical year in the US","date":"October 01, 2021","dateISO":"2021-10-01T10:14:53.000Z","datetime":"2021-10-01 10:14","tags":["dataisbeautiful","reddit"],"image":null,"imageAlt":null,"__typename":"SocialMediaPost","provider":"Reddit","thirdPartyId":"pz0sce","url":"https://www.reddit.com/r/dataisbeautiful/comments/pz0sce/oc_ndvi_vegetation_index_over_a_typical_year_in/","originalUrl":"https://www.reddit.com/r/dataisbeautiful/comments/pz0sce/oc_ndvi_vegetation_index_over_a_typical_year_in/","imageRemote":null,"video":{"url":"https://preview.redd.it/3vlcdfhpqrq71.gif?format=mp4&s=4a3931cd2de3a8c3e14c9eb4ce78c001e04efc9f","embed":null,"width":1000,"height":414},"channel":"dataisbeautiful","channelUrl":"https://www.reddit.com/r/dataisbeautiful","author":"amgadellaboudy","authorUrl":"https://www.reddit.com/user/amgadellaboudy","authorImageRemote":null,"authorImage":null,"authorSlug":"amgadellaboudy","score":85,"views":null,"sharedCount":null,"likeCount":null,"sharedContent":null,"parent":{"localize":[{"title":"[OC] NDVI（植生指標）の米国における典型的な1年間の推移","the_new_excerpt":null,"locale":"ja"},{"title":"[OC] 美国典型年份的NDVI（植被指数）。","the_new_excerpt":null,"locale":"zh"},{"title":"[OC] 美國典型年份的NDVI（植被指數）。","the_new_excerpt":null,"locale":"zh-Hant"}]}},{"id":"RedditPost-pyt4z9","excerpt":"","slug":"/reddit/r/dataisbeautiful/comments/pyt4z9/oc_what_if_the_100_us_senators_were_selected_by/","title":"[OC] What if the 100 US Senators were selected by lot instead of election? There would be more young, women and African American senators (check slideshow for more graphs)","date":"October 01, 2021","dateISO":"2021-10-01T01:12:44.000Z","datetime":"2021-10-01 01:12","tags":["dataisbeautiful","reddit"],"image":null,"imageAlt":null,"__typename":"SocialMediaPost","provider":"Reddit","thirdPartyId":"pyt4z9","url":"https://www.reddit.com/r/dataisbeautiful/comments/pyt4z9/oc_what_if_the_100_us_senators_were_selected_by/","originalUrl":"https://www.reddit.com/r/dataisbeautiful/comments/pyt4z9/oc_what_if_the_100_us_senators_were_selected_by/","imageRemote":null,"video":null,"channel":"dataisbeautiful","channelUrl":"https://www.reddit.com/r/dataisbeautiful","author":"desfirsit","authorUrl":"https://www.reddit.com/user/desfirsit","authorImageRemote":null,"authorImage":null,"authorSlug":"desfirsit","score":95,"views":null,"sharedCount":null,"likeCount":null,"sharedContent":null,"parent":{"localize":[{"title":"[OC】もしも100人の米国上院議員が選挙ではなく、くじ引きで選ばれたら？若手や女性、アフリカ系アメリカ人の上院議員が増えるだろう（他のグラフはスライドショーで確認してください）。","the_new_excerpt":null,"locale":"ja"},{"title":"[OC]如果美国的100名参议员是由抽签而不是选举产生的呢？将会有更多的年轻、女性和非裔美国人参议员（查看幻灯片中的更多图表）。","the_new_excerpt":null,"locale":"zh"},{"title":"[OC]如果美國的100名參議員是由抽籤而不是選舉產生的呢？將會有更多的年輕、女性和非裔美國人蔘議員（查看幻燈片中的更多圖表）。","the_new_excerpt":null,"locale":"zh-Hant"}]}}]}},"pageContext":{"basePath":"/","pageType":"tag","tag":"reddit","tagsFilter":{"date":{"gt":"2000-12-25T10:54:58.000Z"}},"filter":{"date":{"gt":"2000-12-25T10:54:58.000Z"},"tags":{"eq":"reddit"}},"limit":500,"skip":500,"total":516,"totalPages":2,"currentPage":2,"maxWidth":1024,"maxHeight":512,"siteMetadata":null,"locale":"zh","hrefLang":"zh-Hans","originalPath":"/tags/reddit/page/2","dateFormat":"YYYY-MM-DD"}},
    "staticQueryHashes": ["1239077767","2744905544","3025052997","3280999885"]}