{
    "componentChunkName": "component---node-modules-gatsby-theme-buzzing-src-gatsby-theme-timeline-templates-posts-query-js",
    "path": "/zh-Hant/page/14",
    "result": {"data":{"site":{"siteMetadata":{"title":"数据之美","author":"Buzzing.cc","description":"用数字读懂世界，关于数据可视化，统计相关的一切信息","keywords":["buzzing","数据之美","Index","data","突发新闻","指数","统计"],"siteUrl":"https://data.buzzing.cc","telegram":"@buzzingcc","iconUrl":"https://data.buzzing.cc/avatar.jpg","defaultSocialImageUrl":null,"social":[{"name":"Data Is Beautiful","url":"https://www.reddit.com/r/dataisbeautiful","external":true},{"name":"Buzzing","url":"https://www.buzzing.cc/","external":true}],"menuLinks":[],"disqus":null,"utterances":null,"localize":[{"title":"Buzzing on Data","description":"See what's buzzing on data in your native language","keywords":["buzzing","data","charts"],"locale":"en","social":{"name":null,"url":null,"external":null},"menuLinks":[{"name":"Weekly Selection","url":"/issues","external":null}]},{"title":"數據之美","description":"用數字讀懂世界，關於數據可視化，統計相關的一切信息","keywords":["buzzing","數據之美","Index","data","突發新聞","指數","統計"],"locale":"zh-Hant","social":null,"menuLinks":[]},{"title":"データの美しさ","description":"数字を使用して世界、データの視覚化と統計に関するすべての情報を理解する","keywords":["buzzing","データの美しさ"],"locale":"ja","social":null,"menuLinks":[]}]}},"tagsGroup":{"group":[{"fieldValue":"dataisbeautiful","totalCount":579},{"fieldValue":"reddit","totalCount":579},{"fieldValue":"tweet","totalCount":82}]},"allBlogPost":{"nodes":[{"id":"TweetPost-1444190453545385984","excerpt":"","slug":"/tweet/1444190453545385984","title":"Highest government debt as share of GDP, 2020.\n\nJapan: 237%\nGreece: 177%\nLebanon: 150%\nItaly: 135%\nSingapore: 126%\nPortugal: 117%\nAngola: 111%\nMozambique: 109%\nUS: 107%\nJamaica: 103%\nBelgium: 98%\nFrance: 98%\nCongo: 98%\nCyprus: 95%\nSpain: 95%\nBahrain: 93%\nJordan: 92%\nEgypt: 90%","date":"October 02, 2021","dateISO":"2021-10-02T22:42:59.000Z","datetime":"2021-10-02 22:42","tags":["tweet"],"image":null,"imageAlt":null,"__typename":"SocialMediaPost","provider":"Twitter","thirdPartyId":"1444190453545385984","url":"https://twitter.com/spectatorindex/statuses/1444190453545385984","originalUrl":null,"imageRemote":null,"video":null,"channel":null,"channelUrl":null,"author":"The Spectator Index","authorUrl":"https://twitter.com/spectatorindex","authorImageRemote":"https://pbs.twimg.com/profile_images/1145865652533547008/XBahoZmX.png","authorImage":null,"authorSlug":"spectatorindex","score":4012,"views":null,"sharedCount":796,"likeCount":2420,"sharedContent":null,"parent":{"localize":[{"locale":"ja","full_text":"高額な政府債務の対GDP比、2020年。\n\n日本：237\nギリシャ： 177\nレバノン：150\nイタリア：135\nシンガポール：126\nポルトガル：117\nアンゴラ：111\nモザンビーク：109\n米国：107\nジャマイカ：103\nベルギー: 98\nフランス: 98\nコンゴ: 98\nキプロス 95%\nスペイン：95\nバーレーン：93\nヨルダン: 92\nエジプト：90","quoted_status_full_text":null,"retweeted_status_full_text":null},{"locale":"zh","full_text":"最高的政府债务占GDP的比例，2020年。\n\n日本：237%\n希腊：177%\n黎巴嫩：150%\n意大利: 135%\n新加坡: 126%\n葡萄牙: 117%\n安哥拉: 111%\n莫桑比克: 109%\n美国: 107%\n牙买加: 103%\n比利时: 98%\n法国: 98%\n刚果：98%\n塞浦路斯: 95%\n西班牙: 95%\n巴林: 93%\n约旦: 92%\n埃及: 90%","quoted_status_full_text":null,"retweeted_status_full_text":null},{"locale":"zh-Hant","full_text":"最高的政府債務佔GDP的比例，2020年。\n\n日本：237%\n希臘：177%\n黎巴嫩：150%\n意大利: 135%\n新加坡: 126%\n葡萄牙: 117%\n安哥拉: 111%\n莫桑比克: 109%\n美國: 107%\n牙買加: 103%\n比利時: 98%\n法國: 98%\n剛果：98%\n塞浦路斯: 95%\n西班牙: 95%\n巴林: 93%\n約旦: 92%\n埃及: 90%","quoted_status_full_text":null,"retweeted_status_full_text":null}]}},{"id":"RedditPost-pzy78u","excerpt":"","slug":"/reddit/r/dataisbeautiful/comments/pzy78u/oc_usa_and_europe_murder_rates_20202019/","title":"[OC] USA and Europe murder rates 2020/2019","date":"October 02, 2021","dateISO":"2021-10-02T19:22:56.000Z","datetime":"2021-10-02 19:22","tags":["dataisbeautiful","reddit"],"image":null,"imageAlt":"Reddit Image","__typename":"SocialMediaPost","provider":"Reddit","thirdPartyId":"pzy78u","url":"https://www.reddit.com/r/dataisbeautiful/comments/pzy78u/oc_usa_and_europe_murder_rates_20202019/","originalUrl":"https://www.reddit.com/r/dataisbeautiful/comments/pzy78u/oc_usa_and_europe_murder_rates_20202019/","imageRemote":"https://i.redd.it/ncqw5g30b2r71.png?width=1080&crop=smart&auto=webp&s=c9a440ece7ec567d5c1a37d1b9f115ad628375a2","video":null,"channel":"dataisbeautiful","channelUrl":"https://www.reddit.com/r/dataisbeautiful","author":"SPTudoMaisGenro","authorUrl":"https://www.reddit.com/user/SPTudoMaisGenro","authorImageRemote":null,"authorImage":null,"authorSlug":"SPTudoMaisGenro","score":83,"views":null,"sharedCount":null,"likeCount":null,"sharedContent":null,"parent":{"localize":[{"title":"[OC】アメリカとヨーロッパの殺人件数 2020/2019年","the_new_excerpt":null,"locale":"ja"},{"title":"[OC] 美国和欧洲的谋杀率2020/2019年","the_new_excerpt":null,"locale":"zh"},{"title":"[OC] 美國和歐洲的謀殺率2020/2019年","the_new_excerpt":null,"locale":"zh-Hant"}]}},{"id":"RedditPost-pzsj1q","excerpt":"","slug":"/reddit/r/dataisbeautiful/comments/pzsj1q/earths_surface_area_by_typeusage_oc/","title":"Earth's surface area by type/usage [OC]","date":"October 02, 2021","dateISO":"2021-10-02T11:18:38.000Z","datetime":"2021-10-02 11:18","tags":["dataisbeautiful","reddit"],"image":null,"imageAlt":"Reddit Image","__typename":"SocialMediaPost","provider":"Reddit","thirdPartyId":"pzsj1q","url":"https://www.reddit.com/r/dataisbeautiful/comments/pzsj1q/earths_surface_area_by_typeusage_oc/","originalUrl":"https://www.reddit.com/r/dataisbeautiful/comments/pzsj1q/earths_surface_area_by_typeusage_oc/","imageRemote":"https://i.redd.it/vt40iarki0r71.png?width=1080&crop=smart&auto=webp&s=69758d487d5595fbb7232ce2a2a1a77e00295ae1","video":null,"channel":"dataisbeautiful","channelUrl":"https://www.reddit.com/r/dataisbeautiful","author":"rspeigal","authorUrl":"https://www.reddit.com/user/rspeigal","authorImageRemote":null,"authorImage":null,"authorSlug":"rspeigal","score":426,"views":null,"sharedCount":null,"likeCount":null,"sharedContent":null,"parent":{"localize":[{"title":"タイプ/用途別の地球の表面積 [OC)","the_new_excerpt":null,"locale":"ja"},{"title":"按类型/用途划分的地球表面积 [OC]","the_new_excerpt":null,"locale":"zh"},{"title":"按類型/用途劃分的地球表面積 [OC]","the_new_excerpt":null,"locale":"zh-Hant"}]}},{"id":"RedditPost-pzh6uv","excerpt":"","slug":"/reddit/r/dataisbeautiful/comments/pzh6uv/the_worlds_fastest_slowest_internet_speeds/","title":"The World's Fastest & Slowest Internet Speeds","date":"October 02, 2021","dateISO":"2021-10-02T08:17:33.000Z","datetime":"2021-10-02 08:17","tags":["dataisbeautiful","reddit"],"image":null,"imageAlt":null,"__typename":"SocialMediaPost","provider":"Reddit","thirdPartyId":"pzh6uv","url":"https://www.reddit.com/r/dataisbeautiful/comments/pzh6uv/the_worlds_fastest_slowest_internet_speeds/","originalUrl":"https://www.reddit.com/r/dataisbeautiful/comments/pzh6uv/the_worlds_fastest_slowest_internet_speeds/","imageRemote":null,"video":null,"channel":"dataisbeautiful","channelUrl":"https://www.reddit.com/r/dataisbeautiful","author":"NumericallyCorrect","authorUrl":"https://www.reddit.com/user/NumericallyCorrect","authorImageRemote":null,"authorImage":null,"authorSlug":"NumericallyCorrect","score":83,"views":null,"sharedCount":null,"likeCount":null,"sharedContent":null,"parent":{"localize":[{"title":"世界で最も速い＆最も遅いインターネット速度","the_new_excerpt":null,"locale":"ja"},{"title":"世界上最快和最慢的网速","the_new_excerpt":null,"locale":"zh"},{"title":"世界上最快和最慢的網速","the_new_excerpt":null,"locale":"zh-Hant"}]}},{"id":"RedditPost-pz7soo","excerpt":"","slug":"/reddit/r/dataisbeautiful/comments/pz7soo/oc_global_offshore_wind_turbines_20152019/","title":"[OC] Global Offshore Wind Turbines 2015-2019","date":"October 01, 2021","dateISO":"2021-10-01T20:20:05.000Z","datetime":"2021-10-01 20:20","tags":["dataisbeautiful","reddit"],"image":null,"imageAlt":null,"__typename":"SocialMediaPost","provider":"Reddit","thirdPartyId":"pz7soo","url":"https://www.reddit.com/r/dataisbeautiful/comments/pz7soo/oc_global_offshore_wind_turbines_20152019/","originalUrl":"https://www.reddit.com/r/dataisbeautiful/comments/pz7soo/oc_global_offshore_wind_turbines_20152019/","imageRemote":null,"video":{"url":"https://www.redditmedia.com/r/dataisbeautiful/comments/pz7soo/oc_global_offshore_wind_turbines_20152019/?ref_source=embed&amp;ref=share&amp;embed=true","embed":true,"width":1920,"height":1015},"channel":"dataisbeautiful","channelUrl":"https://www.reddit.com/r/dataisbeautiful","author":"mbeccaria","authorUrl":"https://www.reddit.com/user/mbeccaria","authorImageRemote":null,"authorImage":null,"authorSlug":"mbeccaria","score":85,"views":null,"sharedCount":null,"likeCount":null,"sharedContent":null,"parent":{"localize":[{"title":"[OC] 世界の洋上風力発電機 2015-2019","the_new_excerpt":null,"locale":"ja"},{"title":"[OC] 2015-2019年全球海上风力发电机组","the_new_excerpt":null,"locale":"zh"},{"title":"[OC] 2015-2019年全球海上風力發電機組","the_new_excerpt":null,"locale":"zh-Hant"}]}},{"id":"RedditPost-pypa7y","excerpt":"","slug":"/reddit/r/dataisbeautiful/comments/pypa7y/oc_remix_covid_and_2019_mortality_rates_no/","title":"[OC] (Remix) COVID and 2019 Mortality Rates: No percentages","date":"October 01, 2021","dateISO":"2021-10-01T17:30:23.000Z","datetime":"2021-10-01 17:30","tags":["dataisbeautiful","reddit"],"image":null,"imageAlt":"Reddit Image","__typename":"SocialMediaPost","provider":"Reddit","thirdPartyId":"pypa7y","url":"https://www.reddit.com/r/dataisbeautiful/comments/pypa7y/oc_remix_covid_and_2019_mortality_rates_no/","originalUrl":"https://www.reddit.com/r/dataisbeautiful/comments/pypa7y/oc_remix_covid_and_2019_mortality_rates_no/","imageRemote":"https://i.redd.it/12mjxlanjoq71.png?width=1080&crop=smart&auto=webp&s=e7d4ddf7479a9655c812f5b6185c178dca65b7d7","video":null,"channel":"dataisbeautiful","channelUrl":"https://www.reddit.com/r/dataisbeautiful","author":"ke7kto","authorUrl":"https://www.reddit.com/user/ke7kto","authorImageRemote":null,"authorImage":null,"authorSlug":"ke7kto","score":83,"views":null,"sharedCount":null,"likeCount":null,"sharedContent":null,"parent":{"localize":[{"title":"[OC】（リミックス）COVIDと2019年の死亡率。パーセンテージなし","the_new_excerpt":null,"locale":"ja"},{"title":"[OC] （Remix）COVID和2019年的死亡率。没有百分比","the_new_excerpt":null,"locale":"zh"},{"title":"[OC] （Remix）COVID和2019年的死亡率。沒有百分比","the_new_excerpt":null,"locale":"zh-Hant"}]}},{"id":"RedditPost-pz8ikk","excerpt":"","slug":"/reddit/r/dataisbeautiful/comments/pz8ikk/oc_animation_tracking_the_size_of_this_years/","title":"[OC] Animation tracking the size of this year's ozone hole which is one of the largest on record","date":"October 01, 2021","dateISO":"2021-10-01T14:57:11.000Z","datetime":"2021-10-01 14:57","tags":["dataisbeautiful","reddit"],"image":null,"imageAlt":null,"__typename":"SocialMediaPost","provider":"Reddit","thirdPartyId":"pz8ikk","url":"https://www.reddit.com/r/dataisbeautiful/comments/pz8ikk/oc_animation_tracking_the_size_of_this_years/","originalUrl":"https://www.reddit.com/r/dataisbeautiful/comments/pz8ikk/oc_animation_tracking_the_size_of_this_years/","imageRemote":null,"video":{"url":"https://www.redditmedia.com/r/dataisbeautiful/comments/pz8ikk/oc_animation_tracking_the_size_of_this_years/?ref_source=embed&amp;ref=share&amp;embed=true","embed":true,"width":1920,"height":1080},"channel":"dataisbeautiful","channelUrl":"https://www.reddit.com/r/dataisbeautiful","author":"sdbernard","authorUrl":"https://www.reddit.com/user/sdbernard","authorImageRemote":null,"authorImage":null,"authorSlug":"sdbernard","score":82,"views":null,"sharedCount":null,"likeCount":null,"sharedContent":null,"parent":{"localize":[{"title":"[OC] 記録的な大きさとなった今年のオゾンホールの大きさをアニメーションで追う","the_new_excerpt":null,"locale":"ja"},{"title":"[OC] 追踪今年臭氧洞大小的动画，这是有史以来最大的臭氧洞之一","the_new_excerpt":null,"locale":"zh"},{"title":"[OC] 追蹤今年臭氧洞大小的動畫，這是有史以來最大的臭氧洞之一","the_new_excerpt":null,"locale":"zh-Hant"}]}},{"id":"RedditPost-pz70lr","excerpt":"","slug":"/reddit/r/dataisbeautiful/comments/pz70lr/oc_legalization_of_samesex_marriage_in_europe_as/","title":"[OC] Legalization of same-sex marriage in Europe as of 1 October 2021","date":"October 01, 2021","dateISO":"2021-10-01T13:30:29.000Z","datetime":"2021-10-01 13:30","tags":["dataisbeautiful","reddit"],"image":null,"imageAlt":"Reddit Image","__typename":"SocialMediaPost","provider":"Reddit","thirdPartyId":"pz70lr","url":"https://www.reddit.com/r/dataisbeautiful/comments/pz70lr/oc_legalization_of_samesex_marriage_in_europe_as/","originalUrl":"https://www.reddit.com/r/dataisbeautiful/comments/pz70lr/oc_legalization_of_samesex_marriage_in_europe_as/","imageRemote":"https://i.redd.it/d2lo2yyn1uq71.png?width=1080&crop=smart&auto=webp&s=72c13c164742b8a6a4056da92ccc69d96afc7303","video":null,"channel":"dataisbeautiful","channelUrl":"https://www.reddit.com/r/dataisbeautiful","author":"Tricky-Astronaut","authorUrl":"https://www.reddit.com/user/Tricky-Astronaut","authorImageRemote":null,"authorImage":null,"authorSlug":"Tricky-Astronaut","score":106,"views":null,"sharedCount":null,"likeCount":null,"sharedContent":null,"parent":{"localize":[{"title":"[OC】2021年10月1日に欧州で同性婚を合法化","the_new_excerpt":null,"locale":"ja"},{"title":"[OC]从2021年10月1日起，欧洲同性婚姻合法化","the_new_excerpt":null,"locale":"zh"},{"title":"[OC]從2021年10月1日起，歐洲同性婚姻合法化","the_new_excerpt":null,"locale":"zh-Hant"}]}},{"id":"RedditPost-pymu9w","excerpt":"","slug":"/reddit/r/dataisbeautiful/comments/pymu9w/us_county_presidential_vote_margin_changes_from/","title":"US County Presidential Vote Margin Changes from 2016 to 2020 [OC]","date":"October 01, 2021","dateISO":"2021-10-01T13:04:30.000Z","datetime":"2021-10-01 13:04","tags":["dataisbeautiful","reddit"],"image":null,"imageAlt":"Reddit Image","__typename":"SocialMediaPost","provider":"Reddit","thirdPartyId":"pymu9w","url":"https://www.reddit.com/r/dataisbeautiful/comments/pymu9w/us_county_presidential_vote_margin_changes_from/","originalUrl":"https://www.reddit.com/r/dataisbeautiful/comments/pymu9w/us_county_presidential_vote_margin_changes_from/","imageRemote":"https://i.redd.it/wb3iifo4ynq71.png?width=1080&crop=smart&auto=webp&s=10de3a905ba646a4066ed2e61a0a4fe1cc1ecece","video":null,"channel":"dataisbeautiful","channelUrl":"https://www.reddit.com/r/dataisbeautiful","author":"BoMcCready","authorUrl":"https://www.reddit.com/user/BoMcCready","authorImageRemote":null,"authorImage":null,"authorSlug":"BoMcCready","score":83,"views":null,"sharedCount":null,"likeCount":null,"sharedContent":null,"parent":{"localize":[{"title":"2016年から2020年までの米国郡の大統領選投票率の変化【OC","the_new_excerpt":null,"locale":"ja"},{"title":"2016年至2020年美国各县总统投票率变化 [OC]","the_new_excerpt":null,"locale":"zh"},{"title":"2016年至2020年美國各縣總統投票率變化 [OC]","the_new_excerpt":null,"locale":"zh-Hant"}]}},{"id":"RedditPost-pz0sce","excerpt":"","slug":"/reddit/r/dataisbeautiful/comments/pz0sce/oc_ndvi_vegetation_index_over_a_typical_year_in/","title":"[OC] NDVI (Vegetation Index) over a typical year in the US","date":"October 01, 2021","dateISO":"2021-10-01T10:14:53.000Z","datetime":"2021-10-01 10:14","tags":["dataisbeautiful","reddit"],"image":null,"imageAlt":null,"__typename":"SocialMediaPost","provider":"Reddit","thirdPartyId":"pz0sce","url":"https://www.reddit.com/r/dataisbeautiful/comments/pz0sce/oc_ndvi_vegetation_index_over_a_typical_year_in/","originalUrl":"https://www.reddit.com/r/dataisbeautiful/comments/pz0sce/oc_ndvi_vegetation_index_over_a_typical_year_in/","imageRemote":null,"video":{"url":"https://preview.redd.it/3vlcdfhpqrq71.gif?format=mp4&s=4a3931cd2de3a8c3e14c9eb4ce78c001e04efc9f","embed":null,"width":1000,"height":414},"channel":"dataisbeautiful","channelUrl":"https://www.reddit.com/r/dataisbeautiful","author":"amgadellaboudy","authorUrl":"https://www.reddit.com/user/amgadellaboudy","authorImageRemote":null,"authorImage":null,"authorSlug":"amgadellaboudy","score":85,"views":null,"sharedCount":null,"likeCount":null,"sharedContent":null,"parent":{"localize":[{"title":"[OC] NDVI（植生指標）の米国における典型的な1年間の推移","the_new_excerpt":null,"locale":"ja"},{"title":"[OC] 美国典型年份的NDVI（植被指数）。","the_new_excerpt":null,"locale":"zh"},{"title":"[OC] 美國典型年份的NDVI（植被指數）。","the_new_excerpt":null,"locale":"zh-Hant"}]}},{"id":"RedditPost-pyt4z9","excerpt":"","slug":"/reddit/r/dataisbeautiful/comments/pyt4z9/oc_what_if_the_100_us_senators_were_selected_by/","title":"[OC] What if the 100 US Senators were selected by lot instead of election? There would be more young, women and African American senators (check slideshow for more graphs)","date":"October 01, 2021","dateISO":"2021-10-01T01:12:44.000Z","datetime":"2021-10-01 01:12","tags":["dataisbeautiful","reddit"],"image":null,"imageAlt":null,"__typename":"SocialMediaPost","provider":"Reddit","thirdPartyId":"pyt4z9","url":"https://www.reddit.com/r/dataisbeautiful/comments/pyt4z9/oc_what_if_the_100_us_senators_were_selected_by/","originalUrl":"https://www.reddit.com/r/dataisbeautiful/comments/pyt4z9/oc_what_if_the_100_us_senators_were_selected_by/","imageRemote":null,"video":null,"channel":"dataisbeautiful","channelUrl":"https://www.reddit.com/r/dataisbeautiful","author":"desfirsit","authorUrl":"https://www.reddit.com/user/desfirsit","authorImageRemote":null,"authorImage":null,"authorSlug":"desfirsit","score":95,"views":null,"sharedCount":null,"likeCount":null,"sharedContent":null,"parent":{"localize":[{"title":"[OC】もしも100人の米国上院議員が選挙ではなく、くじ引きで選ばれたら？若手や女性、アフリカ系アメリカ人の上院議員が増えるだろう（他のグラフはスライドショーで確認してください）。","the_new_excerpt":null,"locale":"ja"},{"title":"[OC]如果美国的100名参议员是由抽签而不是选举产生的呢？将会有更多的年轻、女性和非裔美国人参议员（查看幻灯片中的更多图表）。","the_new_excerpt":null,"locale":"zh"},{"title":"[OC]如果美國的100名參議員是由抽籤而不是選舉產生的呢？將會有更多的年輕、女性和非裔美國人蔘議員（查看幻燈片中的更多圖表）。","the_new_excerpt":null,"locale":"zh-Hant"}]}}]}},"pageContext":{"basePath":"/","pageType":"home","tagsFilter":{"date":{"gt":"2000-12-25T10:54:58.000Z"}},"filter":{"date":{"gt":"2000-12-25T10:54:58.000Z"}},"limit":50,"skip":650,"totalPages":14,"total":661,"currentPage":14,"maxWidth":1024,"maxHeight":512,"siteMetadata":null,"locale":"zh-Hant","hrefLang":"zh-Hant","originalPath":"/page/14","dateFormat":"YYYY-MM-DD"}},
    "staticQueryHashes": ["1239077767","2744905544","3025052997","3280999885"]}