{
    "componentChunkName": "component---node-modules-gatsby-theme-buzzing-src-gatsby-theme-timeline-templates-posts-query-js",
    "path": "/en/page/14",
    "result": {"data":{"site":{"siteMetadata":{"title":"数据之美","author":"Buzzing.cc","description":"用数字读懂世界，关于数据可视化，统计相关的一切信息","keywords":["buzzing","数据之美","Index","data","突发新闻","指数","统计"],"siteUrl":"https://data.buzzing.cc","telegram":"@buzzingcc","iconUrl":"https://data.buzzing.cc/avatar.jpg","defaultSocialImageUrl":null,"social":[{"name":"Data Is Beautiful","url":"https://www.reddit.com/r/dataisbeautiful","external":true},{"name":"Buzzing","url":"https://www.buzzing.cc/","external":true}],"menuLinks":[],"disqus":null,"utterances":null,"localize":[{"title":"Buzzing on Data","description":"See what's buzzing on data in your native language","keywords":["buzzing","data","charts"],"locale":"en","social":{"name":null,"url":null,"external":null},"menuLinks":[{"name":"Weekly Selection","url":"/issues","external":null}]},{"title":"數據之美","description":"用數字讀懂世界，關於數據可視化，統計相關的一切信息","keywords":["buzzing","數據之美","Index","data","突發新聞","指數","統計"],"locale":"zh-Hant","social":null,"menuLinks":[]},{"title":"データの美しさ","description":"数字を使用して世界、データの視覚化と統計に関するすべての情報を理解する","keywords":["buzzing","データの美しさ"],"locale":"ja","social":null,"menuLinks":[]}]}},"tagsGroup":{"group":[{"fieldValue":"dataisbeautiful","totalCount":571},{"fieldValue":"reddit","totalCount":571},{"fieldValue":"tweet","totalCount":80}]},"allBlogPost":{"nodes":[{"id":"RedditPost-pyt4z9","excerpt":"","slug":"/reddit/r/dataisbeautiful/comments/pyt4z9/oc_what_if_the_100_us_senators_were_selected_by/","title":"[OC] What if the 100 US Senators were selected by lot instead of election? There would be more young, women and African American senators (check slideshow for more graphs)","date":"October 01, 2021","dateISO":"2021-10-01T01:12:44.000Z","datetime":"2021-10-01 01:12","tags":["dataisbeautiful","reddit"],"image":null,"imageAlt":null,"__typename":"SocialMediaPost","provider":"Reddit","thirdPartyId":"pyt4z9","url":"https://www.reddit.com/r/dataisbeautiful/comments/pyt4z9/oc_what_if_the_100_us_senators_were_selected_by/","originalUrl":"https://www.reddit.com/r/dataisbeautiful/comments/pyt4z9/oc_what_if_the_100_us_senators_were_selected_by/","imageRemote":null,"video":null,"channel":"dataisbeautiful","channelUrl":"https://www.reddit.com/r/dataisbeautiful","author":"desfirsit","authorUrl":"https://www.reddit.com/user/desfirsit","authorImageRemote":null,"authorImage":null,"authorSlug":"desfirsit","score":95,"views":null,"sharedCount":null,"likeCount":null,"sharedContent":null,"parent":{"localize":[{"title":"[OC】もしも100人の米国上院議員が選挙ではなく、くじ引きで選ばれたら？若手や女性、アフリカ系アメリカ人の上院議員が増えるだろう（他のグラフはスライドショーで確認してください）。","the_new_excerpt":null,"locale":"ja"},{"title":"[OC]如果美国的100名参议员是由抽签而不是选举产生的呢？将会有更多的年轻、女性和非裔美国人参议员（查看幻灯片中的更多图表）。","the_new_excerpt":null,"locale":"zh"},{"title":"[OC]如果美國的100名參議員是由抽籤而不是選舉產生的呢？將會有更多的年輕、女性和非裔美國人蔘議員（查看幻燈片中的更多圖表）。","the_new_excerpt":null,"locale":"zh-Hant"}]}}]}},"pageContext":{"basePath":"/","pageType":"home","tagsFilter":{"date":{"gt":"2000-12-25T10:54:58.000Z"}},"filter":{"date":{"gt":"2000-12-25T10:54:58.000Z"}},"limit":50,"skip":650,"totalPages":14,"total":651,"currentPage":14,"maxWidth":1024,"maxHeight":512,"siteMetadata":null,"locale":"en","hrefLang":"en-US","originalPath":"/page/14","dateFormat":"MM/DD/YYYY"}},
    "staticQueryHashes": ["1239077767","2744905544","3025052997","3280999885"]}