{"componentChunkName":"component---node-modules-gatsby-theme-buzzing-src-gatsby-theme-timeline-templates-posts-query-js","path":"/tags/reddit/page/17","result":{"data":{"site":{"siteMetadata":{"title":"数据之美","description":"用数字读懂世界，关于数据可视化，统计相关的一切信息","social":[{"name":"Data Is Beautiful","url":"https://www.reddit.com/r/dataisbeautiful","external":true,"prefetch":null},{"name":"Buzzing","url":"https://www.buzzing.cc/","external":true,"prefetch":null}],"menuLinks":[],"localize":[{"locale":"en","title":"Buzzing on Data","description":"See what's buzzing on data in your native language","social":[{"name":"Reddit","url":"https://www.reddit.com/","external":true,"prefetch":null}],"menuLinks":[{"name":"Weekly Selection","url":"/issues","external":null,"prefetch":null}]},{"locale":"zh-Hant","title":"數據之美","description":"用數字讀懂世界，關於數據可視化，統計相關的一切信息","social":null,"menuLinks":[]}]}},"tagsGroup":{"group":[{"fieldValue":"dataisbeautiful","totalCount":414},{"fieldValue":"reddit","totalCount":414},{"fieldValue":"tweet","totalCount":101}]},"allBlogPost":{"nodes":[{"__typename":"SocialMediaPost","id":"RedditPost-kxad2u","excerpt":"","slug":"/reddit/r/dataisbeautiful/comments/kxad2u/monthly_global_temperature_between_1851_and_2020/","title":"Monthly global temperature between 1851 and 2020 [OC]","date":"January 14, 2021","dateISO":"2021-01-14T21:38:21.000Z","datetime":"2021-01-14 21:38","tags":["dataisbeautiful","reddit"],"image":null,"imageAlt":"Reddit Image","provider":"Reddit","thirdPartyId":"kxad2u","url":"https://www.reddit.com/r/dataisbeautiful/comments/kxad2u/monthly_global_temperature_between_1851_and_2020/","originalUrl":"https://www.reddit.com/r/dataisbeautiful/comments/kxad2u/monthly_global_temperature_between_1851_and_2020/","imageRemote":"https://preview.redd.it/gbn8jp9v2cb61.jpg?width=1080&crop=smart&auto=webp&s=5526b9c1aae797bae6e137892cd32e809c7469f5","video":null,"channel":"dataisbeautiful","channelUrl":"https://www.reddit.com/r/dataisbeautiful","author":"neilrkaye","authorUrl":"https://www.reddit.com/user/neilrkaye","authorImage":null,"authorSlug":"neilrkaye","score":113,"views":null,"sharedCount":null,"likeCount":null,"sharedContent":null,"parent":{"__typename":"RedditJson","localize":[{"title":"1851年至2020年期间的全球月度温度[原创]。","the_new_excerpt":null,"locale":"zh"},{"title":"1851年至2020年期間的全球月度溫度[原創]。","the_new_excerpt":null,"locale":"zh-Hant"}]}},{"__typename":"SocialMediaPost","id":"RedditPost-kxcamu","excerpt":"","slug":"/reddit/r/dataisbeautiful/comments/kxcamu/oc_today_i_defended_my_masters_thesis_and/","title":"[OC] Today I defended my Master's thesis and monitored my heart rate during the presentation","date":"January 14, 2021","dateISO":"2021-01-14T21:00:51.000Z","datetime":"2021-01-14 21:00","tags":["dataisbeautiful","reddit"],"image":null,"imageAlt":"Reddit Image","provider":"Reddit","thirdPartyId":"kxcamu","url":"https://www.reddit.com/r/dataisbeautiful/comments/kxcamu/oc_today_i_defended_my_masters_thesis_and/","originalUrl":"https://www.reddit.com/r/dataisbeautiful/comments/kxcamu/oc_today_i_defended_my_masters_thesis_and/","imageRemote":"https://preview.redd.it/8i15ncz2jcb61.png?width=1080&crop=smart&auto=webp&s=76686e83f4bd0925e264f92476dd4e54c7508079","video":null,"channel":"dataisbeautiful","channelUrl":"https://www.reddit.com/r/dataisbeautiful","author":"afonso_raposo","authorUrl":"https://www.reddit.com/user/afonso_raposo","authorImage":null,"authorSlug":"afonso_raposo","score":182,"views":null,"sharedCount":null,"likeCount":null,"sharedContent":null,"parent":{"__typename":"RedditJson","localize":[{"title":"今天我参加了硕士论文的答辩，在演讲过程中，我监测到了自己的心率。","the_new_excerpt":null,"locale":"zh"},{"title":"今天我參加了碩士論文的答辯，在演講過程中，我監測到了自己的心率。","the_new_excerpt":null,"locale":"zh-Hant"}]}},{"__typename":"SocialMediaPost","id":"RedditPost-kxata7","excerpt":"","slug":"/reddit/r/dataisbeautiful/comments/kxata7/oc_us_presidential_impeachments/","title":"[OC] U.S. Presidential Impeachments","date":"January 14, 2021","dateISO":"2021-01-14T20:17:40.000Z","datetime":"2021-01-14 20:17","tags":["dataisbeautiful","reddit"],"image":null,"imageAlt":"Reddit Image","provider":"Reddit","thirdPartyId":"kxata7","url":"https://www.reddit.com/r/dataisbeautiful/comments/kxata7/oc_us_presidential_impeachments/","originalUrl":"https://www.reddit.com/r/dataisbeautiful/comments/kxata7/oc_us_presidential_impeachments/","imageRemote":"https://preview.redd.it/kthk5fnh6cb61.jpg?width=1080&crop=smart&auto=webp&s=761fbb4b8da6cba80ecc3e7c7c2bc5bb708d54cd","video":null,"channel":"dataisbeautiful","channelUrl":"https://www.reddit.com/r/dataisbeautiful","author":"bharky","authorUrl":"https://www.reddit.com/user/bharky","authorImage":null,"authorSlug":"bharky","score":108,"views":null,"sharedCount":null,"likeCount":null,"sharedContent":null,"parent":{"__typename":"RedditJson","localize":[{"title":"[原创]美国总统的弹劾案。","the_new_excerpt":null,"locale":"zh"},{"title":"[原創]美國總統的彈劾案。","the_new_excerpt":null,"locale":"zh-Hant"}]}},{"__typename":"SocialMediaPost","id":"RedditPost-kx5c12","excerpt":"","slug":"/reddit/r/dataisbeautiful/comments/kx5c12/lego_pieces_color_distribution_through_the_years/","title":"LEGO Pieces Color Distribution Through the Years 1949 - 2021 [OC]","date":"January 14, 2021","dateISO":"2021-01-14T18:36:32.000Z","datetime":"2021-01-14 18:36","tags":["dataisbeautiful","reddit"],"image":null,"imageAlt":"Reddit Image","provider":"Reddit","thirdPartyId":"kx5c12","url":"https://www.reddit.com/r/dataisbeautiful/comments/kx5c12/lego_pieces_color_distribution_through_the_years/","originalUrl":"https://www.reddit.com/r/dataisbeautiful/comments/kx5c12/lego_pieces_color_distribution_through_the_years/","imageRemote":"https://preview.redd.it/dckuv0hqrab61.png?width=1080&crop=smart&auto=webp&s=981a4c208bd71fb64243435e3a68058c9606bff3","video":null,"channel":"dataisbeautiful","channelUrl":"https://www.reddit.com/r/dataisbeautiful","author":"randomo_redditor","authorUrl":"https://www.reddit.com/user/randomo_redditor","authorImage":null,"authorSlug":"randomo_redditor","score":117,"views":null,"sharedCount":null,"likeCount":null,"sharedContent":null,"parent":{"__typename":"RedditJson","localize":[{"title":"LEGO Pieces颜色分布1949-2021年 [原创] 。","the_new_excerpt":null,"locale":"zh"},{"title":"LEGO Pieces顏色分佈1949-2021年 [原創] 。","the_new_excerpt":null,"locale":"zh-Hant"}]}},{"__typename":"SocialMediaPost","id":"RedditPost-kx8b43","excerpt":"","slug":"/reddit/r/dataisbeautiful/comments/kx8b43/oc_shift_in_twoparty_presidential_vote_margin/","title":"[OC] Shift in two-party presidential vote margin from 2016 to 2020 by county","date":"January 14, 2021","dateISO":"2021-01-14T18:36:32.000Z","datetime":"2021-01-14 18:36","tags":["dataisbeautiful","reddit"],"image":null,"imageAlt":"Reddit Image","provider":"Reddit","thirdPartyId":"kx8b43","url":"https://www.reddit.com/r/dataisbeautiful/comments/kx8b43/oc_shift_in_twoparty_presidential_vote_margin/","originalUrl":"https://www.reddit.com/r/dataisbeautiful/comments/kx8b43/oc_shift_in_twoparty_presidential_vote_margin/","imageRemote":"https://preview.redd.it/4gpfbzm4lbb61.png?width=1080&crop=smart&auto=webp&s=21350dc8a97b4fe678079c649900df77920caf46","video":null,"channel":"dataisbeautiful","channelUrl":"https://www.reddit.com/r/dataisbeautiful","author":"bgregory98","authorUrl":"https://www.reddit.com/user/bgregory98","authorImage":null,"authorSlug":"bgregory98","score":136,"views":null,"sharedCount":null,"likeCount":null,"sharedContent":null,"parent":{"__typename":"RedditJson","localize":[{"title":"原创]2016年至2020年各县两党总统得票率的变化情况","the_new_excerpt":null,"locale":"zh"},{"title":"原創]2016年至2020年各縣兩黨總統得票率的變化情況","the_new_excerpt":null,"locale":"zh-Hant"}]}},{"__typename":"SocialMediaPost","id":"RedditPost-kx5z0h","excerpt":"","slug":"/reddit/r/dataisbeautiful/comments/kx5z0h/oc_american_presidential_impeachments_by_body/","title":"[OC] American Presidential Impeachments by Body Weight","date":"January 14, 2021","dateISO":"2021-01-14T17:19:55.000Z","datetime":"2021-01-14 17:19","tags":["dataisbeautiful","reddit"],"image":null,"imageAlt":"Reddit Image","provider":"Reddit","thirdPartyId":"kx5z0h","url":"https://www.reddit.com/r/dataisbeautiful/comments/kx5z0h/oc_american_presidential_impeachments_by_body/","originalUrl":"https://www.reddit.com/r/dataisbeautiful/comments/kx5z0h/oc_american_presidential_impeachments_by_body/","imageRemote":"https://preview.redd.it/639hokgvyab61.png?width=960&crop=smart&auto=webp&s=db0ddf154fa4e5091a58472f993a0fb90ecd5cf6","video":null,"channel":"dataisbeautiful","channelUrl":"https://www.reddit.com/r/dataisbeautiful","author":"Game_of_Jobrones","authorUrl":"https://www.reddit.com/user/Game_of_Jobrones","authorImage":null,"authorSlug":"Game_of_Jobrones","score":149,"views":null,"sharedCount":null,"likeCount":null,"sharedContent":null,"parent":{"__typename":"RedditJson","localize":[{"title":"[原创]美国总统弹劾案（按体重计算)","the_new_excerpt":null,"locale":"zh"},{"title":"[原創]美國總統彈劾案（按體重計算)","the_new_excerpt":null,"locale":"zh-Hant"}]}},{"__typename":"SocialMediaPost","id":"RedditPost-kx45mm","excerpt":"","slug":"/reddit/r/dataisbeautiful/comments/kx45mm/oc_there_have_been_four_presidential_impeachments/","title":"[OC] There have been four presidential impeachments in the United States in 231 years, Donald Trump has 50% of them.","date":"January 14, 2021","dateISO":"2021-01-14T14:51:35.000Z","datetime":"2021-01-14 14:51","tags":["dataisbeautiful","reddit"],"image":null,"imageAlt":"Reddit Image","provider":"Reddit","thirdPartyId":"kx45mm","url":"https://www.reddit.com/r/dataisbeautiful/comments/kx45mm/oc_there_have_been_four_presidential_impeachments/","originalUrl":"https://www.reddit.com/r/dataisbeautiful/comments/kx45mm/oc_there_have_been_four_presidential_impeachments/","imageRemote":"https://preview.redd.it/v9elof92dab61.jpg?width=1080&crop=smart&auto=webp&s=35c9ec94d23c0e54cac06ae3eb3f70e2dc5248ff","video":null,"channel":"dataisbeautiful","channelUrl":"https://www.reddit.com/r/dataisbeautiful","author":"JPAnalyst","authorUrl":"https://www.reddit.com/user/JPAnalyst","authorImage":null,"authorSlug":"JPAnalyst","score":148,"views":null,"sharedCount":null,"likeCount":null,"sharedContent":null,"parent":{"__typename":"RedditJson","localize":[{"title":"原创]231年来，美国有四次总统弹劾案，唐纳德-特朗普占了50%。","the_new_excerpt":null,"locale":"zh"},{"title":"原創]231年來，美國有四次總統彈劾案，唐納德-特朗普佔了50%。","the_new_excerpt":null,"locale":"zh-Hant"}]}},{"__typename":"SocialMediaPost","id":"RedditPost-kwgryp","excerpt":"","slug":"/reddit/r/dataisbeautiful/comments/kwgryp/the_number_of_reddit_users_per_100k_people_from/","title":"The number of Reddit users per 100K people from each South American sovereign state. [OC]","date":"January 14, 2021","dateISO":"2021-01-14T13:42:47.000Z","datetime":"2021-01-14 13:42","tags":["dataisbeautiful","reddit"],"image":null,"imageAlt":"Reddit Image","provider":"Reddit","thirdPartyId":"kwgryp","url":"https://www.reddit.com/r/dataisbeautiful/comments/kwgryp/the_number_of_reddit_users_per_100k_people_from/","originalUrl":"https://www.reddit.com/r/dataisbeautiful/comments/kwgryp/the_number_of_reddit_users_per_100k_people_from/","imageRemote":"https://preview.redd.it/abn1rwr0u3b61.png?width=960&crop=smart&auto=webp&s=4ef3920139146f1b0b7ca2fe128828db91d4ea29","video":null,"channel":"dataisbeautiful","channelUrl":"https://www.reddit.com/r/dataisbeautiful","author":"Nikrsz","authorUrl":"https://www.reddit.com/user/Nikrsz","authorImage":null,"authorSlug":"Nikrsz","score":761,"views":null,"sharedCount":null,"likeCount":null,"sharedContent":null,"parent":{"__typename":"RedditJson","localize":[{"title":"每10万南美主权国家的Reddit用户数。[原创]","the_new_excerpt":null,"locale":"zh"},{"title":"每10萬南美主權國家的Reddit用戶數。[原創]","the_new_excerpt":null,"locale":"zh-Hant"}]}},{"__typename":"SocialMediaPost","id":"RedditPost-kwht9t","excerpt":"","slug":"/reddit/r/dataisbeautiful/comments/kwht9t/oc_motion_tracked_flow_visualization_integrated/","title":"[OC] Motion tracked flow visualization - Integrated CFD result with a real video footage","date":"January 14, 2021","dateISO":"2021-01-14T13:42:47.000Z","datetime":"2021-01-14 13:42","tags":["dataisbeautiful","reddit"],"image":null,"imageAlt":null,"provider":"Reddit","thirdPartyId":"kwht9t","url":"https://www.reddit.com/r/dataisbeautiful/comments/kwht9t/oc_motion_tracked_flow_visualization_integrated/","originalUrl":"https://www.reddit.com/r/dataisbeautiful/comments/kwht9t/oc_motion_tracked_flow_visualization_integrated/","imageRemote":null,"video":{"url":"https://www.reddit.com/mediaembed/kwht9t","embed":true,"width":1280,"height":720},"channel":"dataisbeautiful","channelUrl":"https://www.reddit.com/r/dataisbeautiful","author":"southcongresser","authorUrl":"https://www.reddit.com/user/southcongresser","authorImage":null,"authorSlug":"southcongresser","score":31929,"views":null,"sharedCount":null,"likeCount":null,"sharedContent":null,"parent":{"__typename":"RedditJson","localize":[{"title":"[原创] 运动跟踪流可视化--集成CFD结果与真实的视频片段","the_new_excerpt":null,"locale":"zh"},{"title":"[原創] 運動跟蹤流可視化--集成CFD結果與真實的視頻片段","the_new_excerpt":null,"locale":"zh-Hant"}]}},{"__typename":"SocialMediaPost","id":"RedditPost-kwhycb","excerpt":"","slug":"/reddit/r/dataisbeautiful/comments/kwhycb/in_less_than_4_weeks_israel_vaccinated_22_of_its/","title":"In less than 4 weeks Israel vaccinated 22% of its population [OC]","date":"January 14, 2021","dateISO":"2021-01-14T13:42:47.000Z","datetime":"2021-01-14 13:42","tags":["dataisbeautiful","reddit"],"image":null,"imageAlt":"Reddit Image","provider":"Reddit","thirdPartyId":"kwhycb","url":"https://www.reddit.com/r/dataisbeautiful/comments/kwhycb/in_less_than_4_weeks_israel_vaccinated_22_of_its/","originalUrl":"https://www.reddit.com/r/dataisbeautiful/comments/kwhycb/in_less_than_4_weeks_israel_vaccinated_22_of_its/","imageRemote":"https://external-preview.redd.it/3hEzrKJT3l2-99zBA_QaJcmvQJhHljkDN5htwpcCzso.jpg?width=640&crop=smart&auto=webp&s=75defbde7210e7cc4e70213014dd6b2f57746adc","video":null,"channel":"dataisbeautiful","channelUrl":"https://www.reddit.com/r/dataisbeautiful","author":"Max_OurWorldinData","authorUrl":"https://www.reddit.com/user/Max_OurWorldinData","authorImage":null,"authorSlug":"Max_OurWorldinData","score":101,"views":null,"sharedCount":null,"likeCount":null,"sharedContent":null,"parent":{"__typename":"RedditJson","localize":[{"title":"在不到4周的时间里，以色列为其22%的人口接种了疫苗[原创]","the_new_excerpt":null,"locale":"zh"},{"title":"在不到4周的時間裏，以色列爲其22%的人口接種了疫苗[原創]","the_new_excerpt":null,"locale":"zh-Hant"}]}},{"__typename":"SocialMediaPost","id":"RedditPost-kwn9a5","excerpt":"","slug":"/reddit/r/dataisbeautiful/comments/kwn9a5/oc_the_uk_has_been_hit_hard_by_the_second_wave_i/","title":"[OC] The UK has been hit hard by the second wave. I made this visualisation to show just how bad things are.","date":"January 14, 2021","dateISO":"2021-01-14T13:42:47.000Z","datetime":"2021-01-14 13:42","tags":["dataisbeautiful","reddit"],"image":null,"imageAlt":null,"provider":"Reddit","thirdPartyId":"kwn9a5","url":"https://www.reddit.com/r/dataisbeautiful/comments/kwn9a5/oc_the_uk_has_been_hit_hard_by_the_second_wave_i/","originalUrl":"https://www.reddit.com/r/dataisbeautiful/comments/kwn9a5/oc_the_uk_has_been_hit_hard_by_the_second_wave_i/","imageRemote":null,"video":{"url":"https://www.reddit.com/mediaembed/kwn9a5","embed":true,"width":1080,"height":1080},"channel":"dataisbeautiful","channelUrl":"https://www.reddit.com/r/dataisbeautiful","author":"jcceagle","authorUrl":"https://www.reddit.com/user/jcceagle","authorImage":null,"authorSlug":"jcceagle","score":408,"views":null,"sharedCount":null,"likeCount":null,"sharedContent":null,"parent":{"__typename":"RedditJson","localize":[{"title":"[原创]英国已经被第二波浪潮重创。我做了这个可视化的东西来展示事情有多么糟糕。","the_new_excerpt":null,"locale":"zh"},{"title":"[原創]英國已經被第二波浪潮重創。我做了這個可視化的東西來展示事情有多麼糟糕。","the_new_excerpt":null,"locale":"zh-Hant"}]}},{"__typename":"SocialMediaPost","id":"RedditPost-kwp3rb","excerpt":"","slug":"/reddit/r/dataisbeautiful/comments/kwp3rb/oc_for_a_bit_of_good_news_my_home_state_is/","title":"[OC] For a bit of good news, my home state is nearing universal access to home internet for K-12 students. Unconnected students are down 98% from six months ago.","date":"January 14, 2021","dateISO":"2021-01-14T13:42:47.000Z","datetime":"2021-01-14 13:42","tags":["dataisbeautiful","reddit"],"image":null,"imageAlt":"Reddit Image","provider":"Reddit","thirdPartyId":"kwp3rb","url":"https://www.reddit.com/r/dataisbeautiful/comments/kwp3rb/oc_for_a_bit_of_good_news_my_home_state_is/","originalUrl":"https://www.reddit.com/r/dataisbeautiful/comments/kwp3rb/oc_for_a_bit_of_good_news_my_home_state_is/","imageRemote":"https://preview.redd.it/lhw4p1sxs5b61.png?width=1080&crop=smart&auto=webp&s=fc63512a54c6bc95d75e77e11cc12527324762fc","video":null,"channel":"dataisbeautiful","channelUrl":"https://www.reddit.com/r/dataisbeautiful","author":"MKorostoff","authorUrl":"https://www.reddit.com/user/MKorostoff","authorImage":null,"authorSlug":"MKorostoff","score":743,"views":null,"sharedCount":null,"likeCount":null,"sharedContent":null,"parent":{"__typename":"RedditJson","localize":[{"title":"[原创] 有一个好消息，我的家乡即将普及K -12学生的家庭互联网。未连接的学生比六个月前下降了98%。","the_new_excerpt":null,"locale":"zh"},{"title":"[原創] 有一個好消息，我的家鄉即將普及K -12學生的家庭互聯網。未連接的學生比六個月前下降了98%。","the_new_excerpt":null,"locale":"zh-Hant"}]}},{"__typename":"SocialMediaPost","id":"RedditPost-kwy7to","excerpt":"","slug":"/reddit/r/dataisbeautiful/comments/kwy7to/parler_video_gps_metadata_timelapse_from_storming/","title":"Parler Video GPS metadata timelapse from storming of the US Capitol","date":"January 14, 2021","dateISO":"2021-01-14T13:42:47.000Z","datetime":"2021-01-14 13:42","tags":["dataisbeautiful","reddit"],"image":null,"imageAlt":"Reddit Image","provider":"Reddit","thirdPartyId":"kwy7to","url":"https://www.reddit.com/r/dataisbeautiful/comments/kwy7to/parler_video_gps_metadata_timelapse_from_storming/","originalUrl":"https://www.reddit.com/r/dataisbeautiful/comments/kwy7to/parler_video_gps_metadata_timelapse_from_storming/","imageRemote":"https://external-preview.redd.it/1IBL3QmB6XVFjZLlBlc9fCNUpxXH4S4LZQW3DXmslhU.jpg?width=108&crop=smart&auto=webp&s=9eb6172baea8ca3b89e7b8163fe4fa42d313109c","video":null,"channel":"dataisbeautiful","channelUrl":"https://www.reddit.com/r/dataisbeautiful","author":"UnderwearNinja","authorUrl":"https://www.reddit.com/user/UnderwearNinja","authorImage":null,"authorSlug":"UnderwearNinja","score":560,"views":null,"sharedCount":null,"likeCount":null,"sharedContent":null,"parent":{"__typename":"RedditJson","localize":[{"title":"Parler视频GPS元数据时间推移，从冲击美国国会大厦开始。","the_new_excerpt":null,"locale":"zh"},{"title":"Parler視頻GPS元數據時間推移，從衝擊美國國會大廈開始。","the_new_excerpt":null,"locale":"zh-Hant"}]}},{"__typename":"SocialMediaPost","id":"RedditPost-kwzxkc","excerpt":"","slug":"/reddit/r/dataisbeautiful/comments/kwzxkc/oc_us_electoral_college_results_if_electors_were/","title":"[OC] US Electoral College Results if electors were chosen proportionally to votes, instead of winner takes all (2000 - 2020)","date":"January 14, 2021","dateISO":"2021-01-14T13:42:47.000Z","datetime":"2021-01-14 13:42","tags":["dataisbeautiful","reddit"],"image":null,"imageAlt":null,"provider":"Reddit","thirdPartyId":"kwzxkc","url":"https://www.reddit.com/r/dataisbeautiful/comments/kwzxkc/oc_us_electoral_college_results_if_electors_were/","originalUrl":"https://www.reddit.com/r/dataisbeautiful/comments/kwzxkc/oc_us_electoral_college_results_if_electors_were/","imageRemote":null,"video":null,"channel":"dataisbeautiful","channelUrl":"https://www.reddit.com/r/dataisbeautiful","author":"CorruptPhoenix","authorUrl":"https://www.reddit.com/user/CorruptPhoenix","authorImage":null,"authorSlug":"CorruptPhoenix","score":10474,"views":null,"sharedCount":null,"likeCount":null,"sharedContent":null,"parent":{"__typename":"RedditJson","localize":[{"title":"原创]美国选举团的结果，如果选举人是按选票比例选出，而不是赢家通吃（2000-2020年）。","the_new_excerpt":null,"locale":"zh"},{"title":"原創]美國選舉團的結果，如果選舉人是按選票比例選出，而不是贏家通喫（2000-2020年）。","the_new_excerpt":null,"locale":"zh-Hant"}]}}]}},"pageContext":{"basePath":"/","pageType":"tag","tag":"reddit","tagsFilter":{"id":{"glob":"!*Post-1"}},"filter":{"id":{"glob":"!*Post-1"},"tags":{"eq":"reddit"}},"limit":25,"skip":400,"total":414,"totalPages":17,"currentPage":17,"maxWidth":1024,"maxHeight":512,"locale":"zh","hrefLang":"zh-Hans","originalPath":"/tags/reddit/page/17","dateFormat":"YYYY-MM-DD"}},"staticQueryHashes":["1239077767","2506312863","2744905544","3025052997","3493603132","3493603132","3513215887","386998304"]}