{"componentChunkName":"component---node-modules-gatsby-theme-buzzing-src-gatsby-theme-timeline-templates-posts-query-js","path":"/zh-Hant/page/21","result":{"data":{"site":{"siteMetadata":{"title":"数据之美","description":"用数字读懂世界，关于数据可视化，统计相关的一切信息","social":[{"name":"Data Is Beautiful","url":"https://www.reddit.com/r/dataisbeautiful","external":true,"prefetch":null},{"name":"Buzzing","url":"https://www.buzzing.cc/","external":true,"prefetch":null}],"menuLinks":[],"localize":[{"locale":"en","title":"Buzzing on Data","description":"See what's buzzing on data in your native language","social":[{"name":"Reddit","url":"https://www.reddit.com/","external":true,"prefetch":null}],"menuLinks":[{"name":"Weekly Selection","url":"/issues","external":null,"prefetch":null}]},{"locale":"zh-Hant","title":"數據之美","description":"用數字讀懂世界，關於數據可視化，統計相關的一切信息","social":null,"menuLinks":[]}]}},"tagsGroup":{"group":[{"fieldValue":"dataisbeautiful","totalCount":414},{"fieldValue":"reddit","totalCount":414},{"fieldValue":"tweet","totalCount":101}]},"allBlogPost":{"nodes":[{"__typename":"SocialMediaPost","id":"TweetPost-1347665978650345473","excerpt":"","slug":"/tweet/1347665978650345473","title":"Market value. \n\nToyota: $215 billion\nVolkswagen: $103 billion\nDaimler: $74 billion\nGeneral Motors: $61 billion\nBMW: $52 billion\nHonda: $48 billion\nFerrari: $41 billion\nFiat Chrysler: $35 billion\nFord: $35 billion\nNissan: $22 billion\nRenault: $13 billion\n\nTesla: $834 billion","date":"January 14, 2021","dateISO":"2021-01-14T13:53:39.000Z","datetime":"2021-01-14 13:53","tags":["tweet"],"image":null,"imageAlt":null,"provider":"Twitter","thirdPartyId":"1347665978650345473","url":"https://twitter.com/spectatorindex/statuses/1347665978650345473","originalUrl":null,"imageRemote":null,"video":null,"channel":null,"channelUrl":null,"author":"The Spectator Index","authorUrl":"https://twitter.com/spectatorindex","authorImage":{"childImageSharp":{"fixed":{"base64":"data:image/png;base64,iVBORw0KGgoAAAANSUhEUgAAABQAAAAUCAYAAACNiR0NAAAACXBIWXMAAAsSAAALEgHS3X78AAAB2klEQVQ4y+VTTW/aQBDN3+61UtQ/ULVKpebQU9QLRKSqRIpNP5QqFwwhBNshKgQbAvHn+ht7/eKdQhqlUU+ol4y0kt+bfW9nvLM72HLsPEPDsiyxzbX9CjnnYIyhKAq4ros0TeF5HvI8Jz6KIiyXS4RheC+yLIv2iL2+75NWYKpQkEeNBkajEWq1GjRNw2G9DsOYQpZlMN/D13Ybtm1BkiTouoau0oGqDtHr9SC1WqTd33+POI5//8OhdlkZGLBsB3nB0VEUsDAi8yDJ4Ecp0lUBdTjE1JyDCZwXME0T+tUvsCDEReWxqroiw+xGo1ZytkCe+NVHjNSaEOddnsBWjpA6JuGVM4XTbyK47hJOjD54FiKbDVCsEmHIMWu9Q1klHfUHxvVd2GdNuOcSccbxG4RzHWZrj/Ct8glG8zXYpEc4MFWMD1/B6n/ZjA3HvDIU4Vy0sTj9iHHtJdyBTJwh7VVVM5jHbyEu0Op+xqzioplK+cy7wdXBC3j6yZ85dNVvBAJjgKRqKfXmCNeCZaeB+fcPCKbnhNnkDIufB/BHp4SFNravq2JkFJm4lPUoCOPH8ZgT3fw7LwabJpzfEw/XxqT8aw9/kN9gvm4Za3GJJ54Snjjgfz+952d4B9syDY+pt2WdAAAAAElFTkSuQmCC","width":48,"height":48,"src":"/static/77373e21104927fd27b37233b56c6871/aff39/XBahoZmX.png","srcSet":"/static/77373e21104927fd27b37233b56c6871/aff39/XBahoZmX.png 1x,\n/static/77373e21104927fd27b37233b56c6871/e5b88/XBahoZmX.png 1.5x,\n/static/77373e21104927fd27b37233b56c6871/88b72/XBahoZmX.png 2x"}}},"authorSlug":"spectatorindex","score":10909,"views":null,"sharedCount":1948,"likeCount":7013,"sharedContent":null,"parent":{"__typename":"TweetJson","localize":[{"locale":"zh","full_text":"市场价值。\n\n丰田：2150亿美元\n大众汽车：1030亿美元\n戴姆勒：740亿美元\n通用汽车公司。610亿美元\n宝马：520亿美元\n本田：480亿美元\n法拉利：410亿美元\n菲亚特-克莱斯勒：350亿美元\n福特：350亿美元\n日产：220亿美元\n雷诺：130亿美元\n\n特斯拉：8340亿美元","quoted_status_full_text":null,"retweeted_status_full_text":null},{"locale":"zh-Hant","full_text":"市場價值。\n\n豐田：2150億美元\n大衆汽車：1030億美元\n戴姆勒：740億美元\n通用汽車公司。610億美元\n寶馬：520億美元\n本田：480億美元\n法拉利：410億美元\n菲亞特-克萊斯勒：350億美元\n福特：350億美元\n日產：220億美元\n雷諾：130億美元\n\n特斯拉：8340億美元","quoted_status_full_text":null,"retweeted_status_full_text":null}]}},{"__typename":"SocialMediaPost","id":"TweetPost-1347935264002375680","excerpt":"","slug":"/tweet/1347935264002375680","title":"UNITED KINGDOM: Queen Elizabeth II and Prince Philip receive coronavirus vaccine","date":"January 14, 2021","dateISO":"2021-01-14T13:53:39.000Z","datetime":"2021-01-14 13:53","tags":["tweet"],"image":null,"imageAlt":null,"provider":"Twitter","thirdPartyId":"1347935264002375680","url":"https://twitter.com/spectatorindex/statuses/1347935264002375680","originalUrl":null,"imageRemote":null,"video":null,"channel":null,"channelUrl":null,"author":"The Spectator Index","authorUrl":"https://twitter.com/spectatorindex","authorImage":{"childImageSharp":{"fixed":{"base64":"data:image/png;base64,iVBORw0KGgoAAAANSUhEUgAAABQAAAAUCAYAAACNiR0NAAAACXBIWXMAAAsSAAALEgHS3X78AAAB2klEQVQ4y+VTTW/aQBDN3+61UtQ/ULVKpebQU9QLRKSqRIpNP5QqFwwhBNshKgQbAvHn+ht7/eKdQhqlUU+ol4y0kt+bfW9nvLM72HLsPEPDsiyxzbX9CjnnYIyhKAq4ros0TeF5HvI8Jz6KIiyXS4RheC+yLIv2iL2+75NWYKpQkEeNBkajEWq1GjRNw2G9DsOYQpZlMN/D13Ybtm1BkiTouoau0oGqDtHr9SC1WqTd33+POI5//8OhdlkZGLBsB3nB0VEUsDAi8yDJ4Ecp0lUBdTjE1JyDCZwXME0T+tUvsCDEReWxqroiw+xGo1ZytkCe+NVHjNSaEOddnsBWjpA6JuGVM4XTbyK47hJOjD54FiKbDVCsEmHIMWu9Q1klHfUHxvVd2GdNuOcSccbxG4RzHWZrj/Ct8glG8zXYpEc4MFWMD1/B6n/ZjA3HvDIU4Vy0sTj9iHHtJdyBTJwh7VVVM5jHbyEu0Op+xqzioplK+cy7wdXBC3j6yZ85dNVvBAJjgKRqKfXmCNeCZaeB+fcPCKbnhNnkDIufB/BHp4SFNravq2JkFJm4lPUoCOPH8ZgT3fw7LwabJpzfEw/XxqT8aw9/kN9gvm4Za3GJJ54Snjjgfz+952d4B9syDY+pt2WdAAAAAElFTkSuQmCC","width":48,"height":48,"src":"/static/77373e21104927fd27b37233b56c6871/aff39/XBahoZmX.png","srcSet":"/static/77373e21104927fd27b37233b56c6871/aff39/XBahoZmX.png 1x,\n/static/77373e21104927fd27b37233b56c6871/e5b88/XBahoZmX.png 1.5x,\n/static/77373e21104927fd27b37233b56c6871/88b72/XBahoZmX.png 2x"}}},"authorSlug":"spectatorindex","score":8451,"views":null,"sharedCount":929,"likeCount":6593,"sharedContent":null,"parent":{"__typename":"TweetJson","localize":[{"locale":"zh","full_text":"联合王国。女王伊丽莎白二世和菲利普亲王接受冠状病毒疫苗注射","quoted_status_full_text":null,"retweeted_status_full_text":null},{"locale":"zh-Hant","full_text":"聯合王國。女王伊麗莎白二世和菲利普親王接受冠狀病毒疫苗注射","quoted_status_full_text":null,"retweeted_status_full_text":null}]}},{"__typename":"SocialMediaPost","id":"TweetPost-1348055854197559298","excerpt":"","slug":"/tweet/1348055854197559298","title":"Goals scored from free-kicks with club team.\n\nMessi: 48\nCristiano Ronaldo: 47","date":"January 14, 2021","dateISO":"2021-01-14T13:53:39.000Z","datetime":"2021-01-14 13:53","tags":["tweet"],"image":null,"imageAlt":null,"provider":"Twitter","thirdPartyId":"1348055854197559298","url":"https://twitter.com/spectatorindex/statuses/1348055854197559298","originalUrl":null,"imageRemote":null,"video":null,"channel":null,"channelUrl":null,"author":"The Spectator Index","authorUrl":"https://twitter.com/spectatorindex","authorImage":{"childImageSharp":{"fixed":{"base64":"data:image/png;base64,iVBORw0KGgoAAAANSUhEUgAAABQAAAAUCAYAAACNiR0NAAAACXBIWXMAAAsSAAALEgHS3X78AAAB2klEQVQ4y+VTTW/aQBDN3+61UtQ/ULVKpebQU9QLRKSqRIpNP5QqFwwhBNshKgQbAvHn+ht7/eKdQhqlUU+ol4y0kt+bfW9nvLM72HLsPEPDsiyxzbX9CjnnYIyhKAq4ros0TeF5HvI8Jz6KIiyXS4RheC+yLIv2iL2+75NWYKpQkEeNBkajEWq1GjRNw2G9DsOYQpZlMN/D13Ybtm1BkiTouoau0oGqDtHr9SC1WqTd33+POI5//8OhdlkZGLBsB3nB0VEUsDAi8yDJ4Ecp0lUBdTjE1JyDCZwXME0T+tUvsCDEReWxqroiw+xGo1ZytkCe+NVHjNSaEOddnsBWjpA6JuGVM4XTbyK47hJOjD54FiKbDVCsEmHIMWu9Q1klHfUHxvVd2GdNuOcSccbxG4RzHWZrj/Ct8glG8zXYpEc4MFWMD1/B6n/ZjA3HvDIU4Vy0sTj9iHHtJdyBTJwh7VVVM5jHbyEu0Op+xqzioplK+cy7wdXBC3j6yZ85dNVvBAJjgKRqKfXmCNeCZaeB+fcPCKbnhNnkDIufB/BHp4SFNravq2JkFJm4lPUoCOPH8ZgT3fw7LwabJpzfEw/XxqT8aw9/kN9gvm4Za3GJJ54Snjjgfz+952d4B9syDY+pt2WdAAAAAElFTkSuQmCC","width":48,"height":48,"src":"/static/77373e21104927fd27b37233b56c6871/aff39/XBahoZmX.png","srcSet":"/static/77373e21104927fd27b37233b56c6871/aff39/XBahoZmX.png 1x,\n/static/77373e21104927fd27b37233b56c6871/e5b88/XBahoZmX.png 1.5x,\n/static/77373e21104927fd27b37233b56c6871/88b72/XBahoZmX.png 2x"}}},"authorSlug":"spectatorindex","score":7436,"views":null,"sharedCount":613,"likeCount":6210,"sharedContent":null,"parent":{"__typename":"TweetJson","localize":[{"locale":"zh","full_text":"与俱乐部球队的任意球进球。\n\n梅西：48球\n克里斯蒂亚诺-罗纳尔多：47人","quoted_status_full_text":null,"retweeted_status_full_text":null},{"locale":"zh-Hant","full_text":"與俱樂部球隊的任意球進球。\n\n梅西：48球\n克里斯蒂亞諾-羅納爾多：47人","quoted_status_full_text":null,"retweeted_status_full_text":null}]}},{"__typename":"SocialMediaPost","id":"TweetPost-1348098148367880193","excerpt":"","slug":"/tweet/1348098148367880193","title":"PRESIDENT TRUMP AND WEB SERVICES.\n\n- Permanently suspended from Twitter\n\n- Suspended indefinitely from Facebook, Instagram and Snapchat\n\n- Shopify and Paypal ban linked accounts\n\n- Parler, popular with supporters, banned from Amazon hosting and Google and Apple app stores.","date":"January 14, 2021","dateISO":"2021-01-14T13:53:39.000Z","datetime":"2021-01-14 13:53","tags":["tweet"],"image":null,"imageAlt":null,"provider":"Twitter","thirdPartyId":"1348098148367880193","url":"https://twitter.com/spectatorindex/statuses/1348098148367880193","originalUrl":null,"imageRemote":null,"video":null,"channel":null,"channelUrl":null,"author":"The Spectator Index","authorUrl":"https://twitter.com/spectatorindex","authorImage":{"childImageSharp":{"fixed":{"base64":"data:image/png;base64,iVBORw0KGgoAAAANSUhEUgAAABQAAAAUCAYAAACNiR0NAAAACXBIWXMAAAsSAAALEgHS3X78AAAB2klEQVQ4y+VTTW/aQBDN3+61UtQ/ULVKpebQU9QLRKSqRIpNP5QqFwwhBNshKgQbAvHn+ht7/eKdQhqlUU+ol4y0kt+bfW9nvLM72HLsPEPDsiyxzbX9CjnnYIyhKAq4ros0TeF5HvI8Jz6KIiyXS4RheC+yLIv2iL2+75NWYKpQkEeNBkajEWq1GjRNw2G9DsOYQpZlMN/D13Ybtm1BkiTouoau0oGqDtHr9SC1WqTd33+POI5//8OhdlkZGLBsB3nB0VEUsDAi8yDJ4Ecp0lUBdTjE1JyDCZwXME0T+tUvsCDEReWxqroiw+xGo1ZytkCe+NVHjNSaEOddnsBWjpA6JuGVM4XTbyK47hJOjD54FiKbDVCsEmHIMWu9Q1klHfUHxvVd2GdNuOcSccbxG4RzHWZrj/Ct8glG8zXYpEc4MFWMD1/B6n/ZjA3HvDIU4Vy0sTj9iHHtJdyBTJwh7VVVM5jHbyEu0Op+xqzioplK+cy7wdXBC3j6yZ85dNVvBAJjgKRqKfXmCNeCZaeB+fcPCKbnhNnkDIufB/BHp4SFNravq2JkFJm4lPUoCOPH8ZgT3fw7LwabJpzfEw/XxqT8aw9/kN9gvm4Za3GJJ54Snjjgfz+952d4B9syDY+pt2WdAAAAAElFTkSuQmCC","width":48,"height":48,"src":"/static/77373e21104927fd27b37233b56c6871/aff39/XBahoZmX.png","srcSet":"/static/77373e21104927fd27b37233b56c6871/aff39/XBahoZmX.png 1x,\n/static/77373e21104927fd27b37233b56c6871/e5b88/XBahoZmX.png 1.5x,\n/static/77373e21104927fd27b37233b56c6871/88b72/XBahoZmX.png 2x"}}},"authorSlug":"spectatorindex","score":6401,"views":null,"sharedCount":1214,"likeCount":3973,"sharedContent":null,"parent":{"__typename":"TweetJson","localize":[{"locale":"zh","full_text":"特朗普总统和网络服务。\n\n- 从推特上永久停权\n\n- 无限期暂停Facebook、Instagram和Snapchat的使用。\n\n- Shopify和Paypal禁止关联账户\n\n- 受支持者欢迎的Parler，被亚马逊主机和谷歌、苹果应用商店禁止使用。","quoted_status_full_text":null,"retweeted_status_full_text":null},{"locale":"zh-Hant","full_text":"特朗普總統和網絡服務。\n\n- 從推特上永久停權\n\n- 無限期暫停Facebook、Instagram和Snapchat的使用。\n\n- Shopify和Paypal禁止關聯賬戶\n\n- 受支持者歡迎的Parler，被亞馬遜主機和谷歌、蘋果應用商店禁止使用。","quoted_status_full_text":null,"retweeted_status_full_text":null}]}},{"__typename":"SocialMediaPost","id":"TweetPost-1348380884898967553","excerpt":"","slug":"/tweet/1348380884898967553","title":"VATICAN: The personal doctor of Pope Francis, Dr Fabrizio Soccorsi, has died due to complications of coronavirus.","date":"January 14, 2021","dateISO":"2021-01-14T13:53:39.000Z","datetime":"2021-01-14 13:53","tags":["tweet"],"image":null,"imageAlt":null,"provider":"Twitter","thirdPartyId":"1348380884898967553","url":"https://twitter.com/spectatorindex/statuses/1348380884898967553","originalUrl":null,"imageRemote":null,"video":null,"channel":null,"channelUrl":null,"author":"The Spectator Index","authorUrl":"https://twitter.com/spectatorindex","authorImage":{"childImageSharp":{"fixed":{"base64":"data:image/png;base64,iVBORw0KGgoAAAANSUhEUgAAABQAAAAUCAYAAACNiR0NAAAACXBIWXMAAAsSAAALEgHS3X78AAAB2klEQVQ4y+VTTW/aQBDN3+61UtQ/ULVKpebQU9QLRKSqRIpNP5QqFwwhBNshKgQbAvHn+ht7/eKdQhqlUU+ol4y0kt+bfW9nvLM72HLsPEPDsiyxzbX9CjnnYIyhKAq4ros0TeF5HvI8Jz6KIiyXS4RheC+yLIv2iL2+75NWYKpQkEeNBkajEWq1GjRNw2G9DsOYQpZlMN/D13Ybtm1BkiTouoau0oGqDtHr9SC1WqTd33+POI5//8OhdlkZGLBsB3nB0VEUsDAi8yDJ4Ecp0lUBdTjE1JyDCZwXME0T+tUvsCDEReWxqroiw+xGo1ZytkCe+NVHjNSaEOddnsBWjpA6JuGVM4XTbyK47hJOjD54FiKbDVCsEmHIMWu9Q1klHfUHxvVd2GdNuOcSccbxG4RzHWZrj/Ct8glG8zXYpEc4MFWMD1/B6n/ZjA3HvDIU4Vy0sTj9iHHtJdyBTJwh7VVVM5jHbyEu0Op+xqzioplK+cy7wdXBC3j6yZ85dNVvBAJjgKRqKfXmCNeCZaeB+fcPCKbnhNnkDIufB/BHp4SFNravq2JkFJm4lPUoCOPH8ZgT3fw7LwabJpzfEw/XxqT8aw9/kN9gvm4Za3GJJ54Snjjgfz+952d4B9syDY+pt2WdAAAAAElFTkSuQmCC","width":48,"height":48,"src":"/static/77373e21104927fd27b37233b56c6871/aff39/XBahoZmX.png","srcSet":"/static/77373e21104927fd27b37233b56c6871/aff39/XBahoZmX.png 1x,\n/static/77373e21104927fd27b37233b56c6871/e5b88/XBahoZmX.png 1.5x,\n/static/77373e21104927fd27b37233b56c6871/88b72/XBahoZmX.png 2x"}}},"authorSlug":"spectatorindex","score":10924,"views":null,"sharedCount":2170,"likeCount":6584,"sharedContent":null,"parent":{"__typename":"TweetJson","localize":[{"locale":"zh","full_text":"梵蒂冈：教皇方济各的私人医生法布里奇奥-索科西博士因冠状病毒的并发症而去世。","quoted_status_full_text":null,"retweeted_status_full_text":null},{"locale":"zh-Hant","full_text":"梵蒂岡：教皇方濟各的私人醫生法布里奇奧-索科西博士因冠狀病毒的併發症而去世。","quoted_status_full_text":null,"retweeted_status_full_text":null}]}},{"__typename":"SocialMediaPost","id":"TweetPost-1348550640390217729","excerpt":"","slug":"/tweet/1348550640390217729","title":"FINANCE: Bitcoin prices have fallen by over 12% today, now trading at $35,400.","date":"January 14, 2021","dateISO":"2021-01-14T13:53:39.000Z","datetime":"2021-01-14 13:53","tags":["tweet"],"image":null,"imageAlt":null,"provider":"Twitter","thirdPartyId":"1348550640390217729","url":"https://twitter.com/spectatorindex/statuses/1348550640390217729","originalUrl":null,"imageRemote":null,"video":null,"channel":null,"channelUrl":null,"author":"The Spectator Index","authorUrl":"https://twitter.com/spectatorindex","authorImage":{"childImageSharp":{"fixed":{"base64":"data:image/png;base64,iVBORw0KGgoAAAANSUhEUgAAABQAAAAUCAYAAACNiR0NAAAACXBIWXMAAAsSAAALEgHS3X78AAAB2klEQVQ4y+VTTW/aQBDN3+61UtQ/ULVKpebQU9QLRKSqRIpNP5QqFwwhBNshKgQbAvHn+ht7/eKdQhqlUU+ol4y0kt+bfW9nvLM72HLsPEPDsiyxzbX9CjnnYIyhKAq4ros0TeF5HvI8Jz6KIiyXS4RheC+yLIv2iL2+75NWYKpQkEeNBkajEWq1GjRNw2G9DsOYQpZlMN/D13Ybtm1BkiTouoau0oGqDtHr9SC1WqTd33+POI5//8OhdlkZGLBsB3nB0VEUsDAi8yDJ4Ecp0lUBdTjE1JyDCZwXME0T+tUvsCDEReWxqroiw+xGo1ZytkCe+NVHjNSaEOddnsBWjpA6JuGVM4XTbyK47hJOjD54FiKbDVCsEmHIMWu9Q1klHfUHxvVd2GdNuOcSccbxG4RzHWZrj/Ct8glG8zXYpEc4MFWMD1/B6n/ZjA3HvDIU4Vy0sTj9iHHtJdyBTJwh7VVVM5jHbyEu0Op+xqzioplK+cy7wdXBC3j6yZ85dNVvBAJjgKRqKfXmCNeCZaeB+fcPCKbnhNnkDIufB/BHp4SFNravq2JkFJm4lPUoCOPH8ZgT3fw7LwabJpzfEw/XxqT8aw9/kN9gvm4Za3GJJ54Snjjgfz+952d4B9syDY+pt2WdAAAAAElFTkSuQmCC","width":48,"height":48,"src":"/static/77373e21104927fd27b37233b56c6871/aff39/XBahoZmX.png","srcSet":"/static/77373e21104927fd27b37233b56c6871/aff39/XBahoZmX.png 1x,\n/static/77373e21104927fd27b37233b56c6871/e5b88/XBahoZmX.png 1.5x,\n/static/77373e21104927fd27b37233b56c6871/88b72/XBahoZmX.png 2x"}}},"authorSlug":"spectatorindex","score":6828,"views":null,"sharedCount":907,"likeCount":5014,"sharedContent":null,"parent":{"__typename":"TweetJson","localize":[{"locale":"zh","full_text":"金融界：比特币价格今天跌幅超过12%，现在交易价格为35400美元。","quoted_status_full_text":null,"retweeted_status_full_text":null},{"locale":"zh-Hant","full_text":"金融界：比特幣價格今天跌幅超過12%，現在交易價格爲35400美元。","quoted_status_full_text":null,"retweeted_status_full_text":null}]}},{"__typename":"SocialMediaPost","id":"TweetPost-1348813774321459203","excerpt":"","slug":"/tweet/1348813774321459203","title":"SOCIAL MEDIA: Twitter has suspended 70,000 accounts linked to QAnon conspiracy theory","date":"January 14, 2021","dateISO":"2021-01-14T13:53:39.000Z","datetime":"2021-01-14 13:53","tags":["tweet"],"image":null,"imageAlt":null,"provider":"Twitter","thirdPartyId":"1348813774321459203","url":"https://twitter.com/spectatorindex/statuses/1348813774321459203","originalUrl":null,"imageRemote":null,"video":null,"channel":null,"channelUrl":null,"author":"The Spectator Index","authorUrl":"https://twitter.com/spectatorindex","authorImage":{"childImageSharp":{"fixed":{"base64":"data:image/png;base64,iVBORw0KGgoAAAANSUhEUgAAABQAAAAUCAYAAACNiR0NAAAACXBIWXMAAAsSAAALEgHS3X78AAAB2klEQVQ4y+VTTW/aQBDN3+61UtQ/ULVKpebQU9QLRKSqRIpNP5QqFwwhBNshKgQbAvHn+ht7/eKdQhqlUU+ol4y0kt+bfW9nvLM72HLsPEPDsiyxzbX9CjnnYIyhKAq4ros0TeF5HvI8Jz6KIiyXS4RheC+yLIv2iL2+75NWYKpQkEeNBkajEWq1GjRNw2G9DsOYQpZlMN/D13Ybtm1BkiTouoau0oGqDtHr9SC1WqTd33+POI5//8OhdlkZGLBsB3nB0VEUsDAi8yDJ4Ecp0lUBdTjE1JyDCZwXME0T+tUvsCDEReWxqroiw+xGo1ZytkCe+NVHjNSaEOddnsBWjpA6JuGVM4XTbyK47hJOjD54FiKbDVCsEmHIMWu9Q1klHfUHxvVd2GdNuOcSccbxG4RzHWZrj/Ct8glG8zXYpEc4MFWMD1/B6n/ZjA3HvDIU4Vy0sTj9iHHtJdyBTJwh7VVVM5jHbyEu0Op+xqzioplK+cy7wdXBC3j6yZ85dNVvBAJjgKRqKfXmCNeCZaeB+fcPCKbnhNnkDIufB/BHp4SFNravq2JkFJm4lPUoCOPH8ZgT3fw7LwabJpzfEw/XxqT8aw9/kN9gvm4Za3GJJ54Snjjgfz+952d4B9syDY+pt2WdAAAAAElFTkSuQmCC","width":48,"height":48,"src":"/static/77373e21104927fd27b37233b56c6871/aff39/XBahoZmX.png","srcSet":"/static/77373e21104927fd27b37233b56c6871/aff39/XBahoZmX.png 1x,\n/static/77373e21104927fd27b37233b56c6871/e5b88/XBahoZmX.png 1.5x,\n/static/77373e21104927fd27b37233b56c6871/88b72/XBahoZmX.png 2x"}}},"authorSlug":"spectatorindex","score":11210,"views":null,"sharedCount":1655,"likeCount":7900,"sharedContent":null,"parent":{"__typename":"TweetJson","localize":[{"locale":"zh","full_text":"社会媒体。Twitter已经暂停了7万个与QAnon阴谋论有关的账户。","quoted_status_full_text":null,"retweeted_status_full_text":null},{"locale":"zh-Hant","full_text":"社會媒體。Twitter已經暫停了7萬個與QAnon陰謀論有關的賬戶。","quoted_status_full_text":null,"retweeted_status_full_text":null}]}},{"__typename":"SocialMediaPost","id":"TweetPost-1349490077949300737","excerpt":"","slug":"/tweet/1349490077949300737","title":"SOCIAL MEDIA: TikTok to automatically make accounts of users aged under 16 private, in an attempt to improve child safety.","date":"January 14, 2021","dateISO":"2021-01-14T13:53:39.000Z","datetime":"2021-01-14 13:53","tags":["tweet"],"image":null,"imageAlt":null,"provider":"Twitter","thirdPartyId":"1349490077949300737","url":"https://twitter.com/spectatorindex/statuses/1349490077949300737","originalUrl":null,"imageRemote":null,"video":null,"channel":null,"channelUrl":null,"author":"The Spectator Index","authorUrl":"https://twitter.com/spectatorindex","authorImage":{"childImageSharp":{"fixed":{"base64":"data:image/png;base64,iVBORw0KGgoAAAANSUhEUgAAABQAAAAUCAYAAACNiR0NAAAACXBIWXMAAAsSAAALEgHS3X78AAAB2klEQVQ4y+VTTW/aQBDN3+61UtQ/ULVKpebQU9QLRKSqRIpNP5QqFwwhBNshKgQbAvHn+ht7/eKdQhqlUU+ol4y0kt+bfW9nvLM72HLsPEPDsiyxzbX9CjnnYIyhKAq4ros0TeF5HvI8Jz6KIiyXS4RheC+yLIv2iL2+75NWYKpQkEeNBkajEWq1GjRNw2G9DsOYQpZlMN/D13Ybtm1BkiTouoau0oGqDtHr9SC1WqTd33+POI5//8OhdlkZGLBsB3nB0VEUsDAi8yDJ4Ecp0lUBdTjE1JyDCZwXME0T+tUvsCDEReWxqroiw+xGo1ZytkCe+NVHjNSaEOddnsBWjpA6JuGVM4XTbyK47hJOjD54FiKbDVCsEmHIMWu9Q1klHfUHxvVd2GdNuOcSccbxG4RzHWZrj/Ct8glG8zXYpEc4MFWMD1/B6n/ZjA3HvDIU4Vy0sTj9iHHtJdyBTJwh7VVVM5jHbyEu0Op+xqzioplK+cy7wdXBC3j6yZ85dNVvBAJjgKRqKfXmCNeCZaeB+fcPCKbnhNnkDIufB/BHp4SFNravq2JkFJm4lPUoCOPH8ZgT3fw7LwabJpzfEw/XxqT8aw9/kN9gvm4Za3GJJ54Snjjgfz+952d4B9syDY+pt2WdAAAAAElFTkSuQmCC","width":48,"height":48,"src":"/static/77373e21104927fd27b37233b56c6871/aff39/XBahoZmX.png","srcSet":"/static/77373e21104927fd27b37233b56c6871/aff39/XBahoZmX.png 1x,\n/static/77373e21104927fd27b37233b56c6871/e5b88/XBahoZmX.png 1.5x,\n/static/77373e21104927fd27b37233b56c6871/88b72/XBahoZmX.png 2x"}}},"authorSlug":"spectatorindex","score":7747,"views":null,"sharedCount":782,"likeCount":6183,"sharedContent":null,"parent":{"__typename":"TweetJson","localize":[{"locale":"zh","full_text":"社交媒体。TikTok将自动将16岁以下的用户的账户私有化，以提高儿童安全。","quoted_status_full_text":null,"retweeted_status_full_text":null},{"locale":"zh-Hant","full_text":"社交媒體。TikTok將自動將16歲以下的用戶的賬戶私有化，以提高兒童安全。","quoted_status_full_text":null,"retweeted_status_full_text":null}]}},{"__typename":"SocialMediaPost","id":"RedditPost-kwgryp","excerpt":"","slug":"/reddit/r/dataisbeautiful/comments/kwgryp/the_number_of_reddit_users_per_100k_people_from/","title":"The number of Reddit users per 100K people from each South American sovereign state. [OC]","date":"January 14, 2021","dateISO":"2021-01-14T13:42:47.000Z","datetime":"2021-01-14 13:42","tags":["dataisbeautiful","reddit"],"image":null,"imageAlt":"Reddit Image","provider":"Reddit","thirdPartyId":"kwgryp","url":"https://www.reddit.com/r/dataisbeautiful/comments/kwgryp/the_number_of_reddit_users_per_100k_people_from/","originalUrl":"https://www.reddit.com/r/dataisbeautiful/comments/kwgryp/the_number_of_reddit_users_per_100k_people_from/","imageRemote":"https://preview.redd.it/abn1rwr0u3b61.png?width=960&crop=smart&auto=webp&s=4ef3920139146f1b0b7ca2fe128828db91d4ea29","video":null,"channel":"dataisbeautiful","channelUrl":"https://www.reddit.com/r/dataisbeautiful","author":"Nikrsz","authorUrl":"https://www.reddit.com/user/Nikrsz","authorImage":null,"authorSlug":"Nikrsz","score":761,"views":null,"sharedCount":null,"likeCount":null,"sharedContent":null,"parent":{"__typename":"RedditJson","localize":[{"title":"每10万南美主权国家的Reddit用户数。[原创]","the_new_excerpt":null,"locale":"zh"},{"title":"每10萬南美主權國家的Reddit用戶數。[原創]","the_new_excerpt":null,"locale":"zh-Hant"}]}},{"__typename":"SocialMediaPost","id":"RedditPost-kwht9t","excerpt":"","slug":"/reddit/r/dataisbeautiful/comments/kwht9t/oc_motion_tracked_flow_visualization_integrated/","title":"[OC] Motion tracked flow visualization - Integrated CFD result with a real video footage","date":"January 14, 2021","dateISO":"2021-01-14T13:42:47.000Z","datetime":"2021-01-14 13:42","tags":["dataisbeautiful","reddit"],"image":null,"imageAlt":null,"provider":"Reddit","thirdPartyId":"kwht9t","url":"https://www.reddit.com/r/dataisbeautiful/comments/kwht9t/oc_motion_tracked_flow_visualization_integrated/","originalUrl":"https://www.reddit.com/r/dataisbeautiful/comments/kwht9t/oc_motion_tracked_flow_visualization_integrated/","imageRemote":null,"video":{"url":"https://www.reddit.com/mediaembed/kwht9t","embed":true,"width":1280,"height":720},"channel":"dataisbeautiful","channelUrl":"https://www.reddit.com/r/dataisbeautiful","author":"southcongresser","authorUrl":"https://www.reddit.com/user/southcongresser","authorImage":null,"authorSlug":"southcongresser","score":31929,"views":null,"sharedCount":null,"likeCount":null,"sharedContent":null,"parent":{"__typename":"RedditJson","localize":[{"title":"[原创] 运动跟踪流可视化--集成CFD结果与真实的视频片段","the_new_excerpt":null,"locale":"zh"},{"title":"[原創] 運動跟蹤流可視化--集成CFD結果與真實的視頻片段","the_new_excerpt":null,"locale":"zh-Hant"}]}},{"__typename":"SocialMediaPost","id":"RedditPost-kwhycb","excerpt":"","slug":"/reddit/r/dataisbeautiful/comments/kwhycb/in_less_than_4_weeks_israel_vaccinated_22_of_its/","title":"In less than 4 weeks Israel vaccinated 22% of its population [OC]","date":"January 14, 2021","dateISO":"2021-01-14T13:42:47.000Z","datetime":"2021-01-14 13:42","tags":["dataisbeautiful","reddit"],"image":null,"imageAlt":"Reddit Image","provider":"Reddit","thirdPartyId":"kwhycb","url":"https://www.reddit.com/r/dataisbeautiful/comments/kwhycb/in_less_than_4_weeks_israel_vaccinated_22_of_its/","originalUrl":"https://www.reddit.com/r/dataisbeautiful/comments/kwhycb/in_less_than_4_weeks_israel_vaccinated_22_of_its/","imageRemote":"https://external-preview.redd.it/3hEzrKJT3l2-99zBA_QaJcmvQJhHljkDN5htwpcCzso.jpg?width=640&crop=smart&auto=webp&s=75defbde7210e7cc4e70213014dd6b2f57746adc","video":null,"channel":"dataisbeautiful","channelUrl":"https://www.reddit.com/r/dataisbeautiful","author":"Max_OurWorldinData","authorUrl":"https://www.reddit.com/user/Max_OurWorldinData","authorImage":null,"authorSlug":"Max_OurWorldinData","score":101,"views":null,"sharedCount":null,"likeCount":null,"sharedContent":null,"parent":{"__typename":"RedditJson","localize":[{"title":"在不到4周的时间里，以色列为其22%的人口接种了疫苗[原创]","the_new_excerpt":null,"locale":"zh"},{"title":"在不到4周的時間裏，以色列爲其22%的人口接種了疫苗[原創]","the_new_excerpt":null,"locale":"zh-Hant"}]}},{"__typename":"SocialMediaPost","id":"RedditPost-kwn9a5","excerpt":"","slug":"/reddit/r/dataisbeautiful/comments/kwn9a5/oc_the_uk_has_been_hit_hard_by_the_second_wave_i/","title":"[OC] The UK has been hit hard by the second wave. I made this visualisation to show just how bad things are.","date":"January 14, 2021","dateISO":"2021-01-14T13:42:47.000Z","datetime":"2021-01-14 13:42","tags":["dataisbeautiful","reddit"],"image":null,"imageAlt":null,"provider":"Reddit","thirdPartyId":"kwn9a5","url":"https://www.reddit.com/r/dataisbeautiful/comments/kwn9a5/oc_the_uk_has_been_hit_hard_by_the_second_wave_i/","originalUrl":"https://www.reddit.com/r/dataisbeautiful/comments/kwn9a5/oc_the_uk_has_been_hit_hard_by_the_second_wave_i/","imageRemote":null,"video":{"url":"https://www.reddit.com/mediaembed/kwn9a5","embed":true,"width":1080,"height":1080},"channel":"dataisbeautiful","channelUrl":"https://www.reddit.com/r/dataisbeautiful","author":"jcceagle","authorUrl":"https://www.reddit.com/user/jcceagle","authorImage":null,"authorSlug":"jcceagle","score":408,"views":null,"sharedCount":null,"likeCount":null,"sharedContent":null,"parent":{"__typename":"RedditJson","localize":[{"title":"[原创]英国已经被第二波浪潮重创。我做了这个可视化的东西来展示事情有多么糟糕。","the_new_excerpt":null,"locale":"zh"},{"title":"[原創]英國已經被第二波浪潮重創。我做了這個可視化的東西來展示事情有多麼糟糕。","the_new_excerpt":null,"locale":"zh-Hant"}]}},{"__typename":"SocialMediaPost","id":"RedditPost-kwp3rb","excerpt":"","slug":"/reddit/r/dataisbeautiful/comments/kwp3rb/oc_for_a_bit_of_good_news_my_home_state_is/","title":"[OC] For a bit of good news, my home state is nearing universal access to home internet for K-12 students. Unconnected students are down 98% from six months ago.","date":"January 14, 2021","dateISO":"2021-01-14T13:42:47.000Z","datetime":"2021-01-14 13:42","tags":["dataisbeautiful","reddit"],"image":null,"imageAlt":"Reddit Image","provider":"Reddit","thirdPartyId":"kwp3rb","url":"https://www.reddit.com/r/dataisbeautiful/comments/kwp3rb/oc_for_a_bit_of_good_news_my_home_state_is/","originalUrl":"https://www.reddit.com/r/dataisbeautiful/comments/kwp3rb/oc_for_a_bit_of_good_news_my_home_state_is/","imageRemote":"https://preview.redd.it/lhw4p1sxs5b61.png?width=1080&crop=smart&auto=webp&s=fc63512a54c6bc95d75e77e11cc12527324762fc","video":null,"channel":"dataisbeautiful","channelUrl":"https://www.reddit.com/r/dataisbeautiful","author":"MKorostoff","authorUrl":"https://www.reddit.com/user/MKorostoff","authorImage":null,"authorSlug":"MKorostoff","score":743,"views":null,"sharedCount":null,"likeCount":null,"sharedContent":null,"parent":{"__typename":"RedditJson","localize":[{"title":"[原创] 有一个好消息，我的家乡即将普及K -12学生的家庭互联网。未连接的学生比六个月前下降了98%。","the_new_excerpt":null,"locale":"zh"},{"title":"[原創] 有一個好消息，我的家鄉即將普及K -12學生的家庭互聯網。未連接的學生比六個月前下降了98%。","the_new_excerpt":null,"locale":"zh-Hant"}]}},{"__typename":"SocialMediaPost","id":"RedditPost-kwy7to","excerpt":"","slug":"/reddit/r/dataisbeautiful/comments/kwy7to/parler_video_gps_metadata_timelapse_from_storming/","title":"Parler Video GPS metadata timelapse from storming of the US Capitol","date":"January 14, 2021","dateISO":"2021-01-14T13:42:47.000Z","datetime":"2021-01-14 13:42","tags":["dataisbeautiful","reddit"],"image":null,"imageAlt":"Reddit Image","provider":"Reddit","thirdPartyId":"kwy7to","url":"https://www.reddit.com/r/dataisbeautiful/comments/kwy7to/parler_video_gps_metadata_timelapse_from_storming/","originalUrl":"https://www.reddit.com/r/dataisbeautiful/comments/kwy7to/parler_video_gps_metadata_timelapse_from_storming/","imageRemote":"https://external-preview.redd.it/1IBL3QmB6XVFjZLlBlc9fCNUpxXH4S4LZQW3DXmslhU.jpg?width=108&crop=smart&auto=webp&s=9eb6172baea8ca3b89e7b8163fe4fa42d313109c","video":null,"channel":"dataisbeautiful","channelUrl":"https://www.reddit.com/r/dataisbeautiful","author":"UnderwearNinja","authorUrl":"https://www.reddit.com/user/UnderwearNinja","authorImage":null,"authorSlug":"UnderwearNinja","score":560,"views":null,"sharedCount":null,"likeCount":null,"sharedContent":null,"parent":{"__typename":"RedditJson","localize":[{"title":"Parler视频GPS元数据时间推移，从冲击美国国会大厦开始。","the_new_excerpt":null,"locale":"zh"},{"title":"Parler視頻GPS元數據時間推移，從衝擊美國國會大廈開始。","the_new_excerpt":null,"locale":"zh-Hant"}]}},{"__typename":"SocialMediaPost","id":"RedditPost-kwzxkc","excerpt":"","slug":"/reddit/r/dataisbeautiful/comments/kwzxkc/oc_us_electoral_college_results_if_electors_were/","title":"[OC] US Electoral College Results if electors were chosen proportionally to votes, instead of winner takes all (2000 - 2020)","date":"January 14, 2021","dateISO":"2021-01-14T13:42:47.000Z","datetime":"2021-01-14 13:42","tags":["dataisbeautiful","reddit"],"image":null,"imageAlt":null,"provider":"Reddit","thirdPartyId":"kwzxkc","url":"https://www.reddit.com/r/dataisbeautiful/comments/kwzxkc/oc_us_electoral_college_results_if_electors_were/","originalUrl":"https://www.reddit.com/r/dataisbeautiful/comments/kwzxkc/oc_us_electoral_college_results_if_electors_were/","imageRemote":null,"video":null,"channel":"dataisbeautiful","channelUrl":"https://www.reddit.com/r/dataisbeautiful","author":"CorruptPhoenix","authorUrl":"https://www.reddit.com/user/CorruptPhoenix","authorImage":null,"authorSlug":"CorruptPhoenix","score":10474,"views":null,"sharedCount":null,"likeCount":null,"sharedContent":null,"parent":{"__typename":"RedditJson","localize":[{"title":"原创]美国选举团的结果，如果选举人是按选票比例选出，而不是赢家通吃（2000-2020年）。","the_new_excerpt":null,"locale":"zh"},{"title":"原創]美國選舉團的結果，如果選舉人是按選票比例選出，而不是贏家通喫（2000-2020年）。","the_new_excerpt":null,"locale":"zh-Hant"}]}}]}},"pageContext":{"basePath":"/","pageType":"home","tagsFilter":{"id":{"glob":"!*Post-1"}},"filter":{"id":{"glob":"!*Post-1"}},"limit":25,"skip":500,"totalPages":21,"total":515,"currentPage":21,"maxWidth":1024,"maxHeight":512,"locale":"zh-Hant","hrefLang":"zh-Hant","originalPath":"/page/21","dateFormat":"YYYY-MM-DD"}},"staticQueryHashes":["1239077767","2506312863","2744905544","3025052997","3493603132","3493603132","3513215887","386998304"]}