{"componentChunkName":"component---node-modules-gatsby-theme-buzzing-src-gatsby-theme-timeline-templates-posts-query-js","path":"/tags/tweet/page/5","result":{"data":{"site":{"siteMetadata":{"title":"数据之美","description":"用数字读懂世界，关于数据可视化，统计相关的一切信息","social":[{"name":"Data Is Beautiful","url":"https://www.reddit.com/r/dataisbeautiful","external":true,"prefetch":null},{"name":"Buzzing","url":"https://www.buzzing.cc/","external":true,"prefetch":null}],"menuLinks":[],"localize":[{"locale":"en","title":"Buzzing on Data","description":"See what's buzzing on data in your native language","social":[{"name":"Reddit","url":"https://www.reddit.com/","external":true,"prefetch":null}],"menuLinks":[{"name":"Weekly Selection","url":"/issues","external":null,"prefetch":null}]},{"locale":"zh-Hant","title":"數據之美","description":"用數字讀懂世界，關於數據可視化，統計相關的一切信息","social":null,"menuLinks":[]}]}},"tagsGroup":{"group":[{"fieldValue":"dataisbeautiful","totalCount":414},{"fieldValue":"reddit","totalCount":414},{"fieldValue":"tweet","totalCount":101}]},"allBlogPost":{"nodes":[{"__typename":"SocialMediaPost","id":"TweetPost-1349490077949300737","excerpt":"","slug":"/tweet/1349490077949300737","title":"SOCIAL MEDIA: TikTok to automatically make accounts of users aged under 16 private, in an attempt to improve child safety.","date":"January 14, 2021","dateISO":"2021-01-14T13:53:39.000Z","datetime":"2021-01-14 13:53","tags":["tweet"],"image":null,"imageAlt":null,"provider":"Twitter","thirdPartyId":"1349490077949300737","url":"https://twitter.com/spectatorindex/statuses/1349490077949300737","originalUrl":null,"imageRemote":null,"video":null,"channel":null,"channelUrl":null,"author":"The Spectator Index","authorUrl":"https://twitter.com/spectatorindex","authorImage":{"childImageSharp":{"fixed":{"base64":"data:image/png;base64,iVBORw0KGgoAAAANSUhEUgAAABQAAAAUCAYAAACNiR0NAAAACXBIWXMAAAsSAAALEgHS3X78AAAB2klEQVQ4y+VTTW/aQBDN3+61UtQ/ULVKpebQU9QLRKSqRIpNP5QqFwwhBNshKgQbAvHn+ht7/eKdQhqlUU+ol4y0kt+bfW9nvLM72HLsPEPDsiyxzbX9CjnnYIyhKAq4ros0TeF5HvI8Jz6KIiyXS4RheC+yLIv2iL2+75NWYKpQkEeNBkajEWq1GjRNw2G9DsOYQpZlMN/D13Ybtm1BkiTouoau0oGqDtHr9SC1WqTd33+POI5//8OhdlkZGLBsB3nB0VEUsDAi8yDJ4Ecp0lUBdTjE1JyDCZwXME0T+tUvsCDEReWxqroiw+xGo1ZytkCe+NVHjNSaEOddnsBWjpA6JuGVM4XTbyK47hJOjD54FiKbDVCsEmHIMWu9Q1klHfUHxvVd2GdNuOcSccbxG4RzHWZrj/Ct8glG8zXYpEc4MFWMD1/B6n/ZjA3HvDIU4Vy0sTj9iHHtJdyBTJwh7VVVM5jHbyEu0Op+xqzioplK+cy7wdXBC3j6yZ85dNVvBAJjgKRqKfXmCNeCZaeB+fcPCKbnhNnkDIufB/BHp4SFNravq2JkFJm4lPUoCOPH8ZgT3fw7LwabJpzfEw/XxqT8aw9/kN9gvm4Za3GJJ54Snjjgfz+952d4B9syDY+pt2WdAAAAAElFTkSuQmCC","width":48,"height":48,"src":"/static/77373e21104927fd27b37233b56c6871/aff39/XBahoZmX.png","srcSet":"/static/77373e21104927fd27b37233b56c6871/aff39/XBahoZmX.png 1x,\n/static/77373e21104927fd27b37233b56c6871/e5b88/XBahoZmX.png 1.5x,\n/static/77373e21104927fd27b37233b56c6871/88b72/XBahoZmX.png 2x"}}},"authorSlug":"spectatorindex","score":7747,"views":null,"sharedCount":782,"likeCount":6183,"sharedContent":null,"parent":{"__typename":"TweetJson","localize":[{"locale":"zh","full_text":"社交媒体。TikTok将自动将16岁以下的用户的账户私有化，以提高儿童安全。","quoted_status_full_text":null,"retweeted_status_full_text":null},{"locale":"zh-Hant","full_text":"社交媒體。TikTok將自動將16歲以下的用戶的賬戶私有化，以提高兒童安全。","quoted_status_full_text":null,"retweeted_status_full_text":null}]}}]}},"pageContext":{"basePath":"/","pageType":"tag","tag":"tweet","tagsFilter":{"id":{"glob":"!*Post-1"}},"filter":{"id":{"glob":"!*Post-1"},"tags":{"eq":"tweet"}},"limit":25,"skip":100,"total":101,"totalPages":5,"currentPage":5,"maxWidth":1024,"maxHeight":512,"locale":"zh","hrefLang":"zh-Hans","originalPath":"/tags/tweet/page/5","dateFormat":"YYYY-MM-DD"}},"staticQueryHashes":["1239077767","2506312863","2744905544","3025052997","3493603132","3493603132","3513215887","386998304"]}